{
    "template_type": 3,
    "content_type": "영화",
    "title": {
        "media": {
            "url": "https://entertain.naver.com/movie/now/read?oid=410&aid=0000471478",
            "caption": "",
            "thumb": "",
            "credit": ""
        },
        "text": {
            "main_title": "전도연 이창동 버닝 프랑스 칸영화제 ",
            "main_subtitle": "MAIN_SUBTITLE HERE",
            "main_text": "자식을 잃어버린 부모의 깊이를 가늠할 수 없는 아픔부터 누구도 믿을 수 없는 상황 속 홀로 아들을 찾아 나서는 강인함까지 보여줄 이영애는 복잡한 감정이 응축된 입체적인 모성애 연기를 보여줄 예정이다.이영애 사진워너브러더스 드라마 응답하라 1988에서 동룡의 아빠 역할로 맛깔스런 연기를 보여준데 이어 비밀의 숲에서 감춰뒀던 야망과 권력욕을 드러내는 차장검사 이창준 역을 맡아 서늘한 카리스마로 시청자들을 압도했던 배우 유재명이 작은 해안 마을 파출소에 근무하는 홍경장 역으로 합류했다. "
        }
    },
    "sub_data": [
        [
            {
                "media": {
                    "url": "https://entertain.naver.com/movie/now/read?oid=382&aid=0000646570",
                    "caption": "",
                    "thumb": "",
                    "credit": ""
                },
                "number_info": "11:08",
                "background_image_url": "background_image_url HERE",
                "text": {
                    "video_url": "https://www.youtube.com/watch?v=PMmWdzURfXk",
                    "sub_text3": "이영애 스크린 복귀작 나를 찾아줘 14일 크랭크인유재명 이원근 합류 이영애의 13년만의 스크린 복귀작으로 기대를 모으는 영화 가 깊은 내공의 실력파 배우 유재명, 이원근, 박해준 등 캐스팅을 완료, 리딩과 고사를 마치고 지난 5월 14일 월 크랭크인 했다. 또한 드라마 [굿와이프]의 당돌한 신입 변호사로 전도연과 미묘한 신경전을, 그리고 영화 에서 김하늘과 파격적인 호흡으로 주목받은 이원근이 에서 정연이 아들을 찾을 수 있도록 곁에서 돕는 전국미아찾기협회 청년 승현 역을 맡았다. ",
                    "sub_text2": "이영애 스크린 복귀작 나를 찾아줘 14일 크랭크인유재명 이원근 합류 이영애의 13년만의 스크린 복귀작으로 기대를 모으는 영화 가 깊은 내공의 실력파 배우 유재명, 이원근, 박해준 등 캐스팅을 완료, 리딩과 고사를 마치고 지난 5월 14일 월 크랭크인 했다. 에서 이영애는 아들을 잃어버린 실의와 죄책감, 그리움으로 6년의 시간을 보내면서도 아이를 찾을 수 있다는 희망을 포기하지 않는 정연 역을 맡았다. 자식을 잃어버린 부모의 깊이를 가늠할 수 없는 아픔부터 누구도 믿을 수 없는 상황 속 홀로 아들을 찾아 나서는 강인함까지 보여줄 이영애는 복잡한 감정이 응축된 입체적인 모성애 연기로 공감을 이끌어낼 것이다. 나름의 규칙과 은폐, 권력으로 유지해오던 마을에 실종된 아들을 찾겠다고 정연이 나타나며 균열이 생기자 불편한 기색을 감추지 못하는 홍경장을 연기한 유재명은 강한 존재감의 연기로 극에 긴장감을 불어넣을 것이다. 또한 드라마 [굿와이프]의 당돌한 신입 변호사로 전도연과 미묘한 신경전을, 그리고 영화 에서 김하늘과 파격적인 호흡으로 주목받은 이원근이 에서 정연이 아들을 찾을 수 있도록 곁에서 돕는 전국미아찾기협회 청년 승현 역을 맡았다. ",
                    "sub_title": "이영애 스크린 복귀작 ‘나를 찾아줘’ 14일 크랭크인…유재명-이원근 합류",
                    "image_url": [
                        "https://ssl.pstatic.net/mimgnews/image/382/2018/05/16/0000646570_001_20180516110817334.jpg?type=w540"
                    ],
                    "sub_text": "이영애 스크린 복귀작 나를 찾아줘 14일 크랭크인유재명 이원근 합류 이영애의 13년만의 스크린 복귀작으로 기대를 모으는 영화 가 깊은 내공의 실력파 배우 유재명, 이원근, 박해준 등 캐스팅을 완료, 리딩과 고사를 마치고 지난 5월 14일 월 크랭크인 했다. 박찬욱 감독의 복수 3부작 그 대단원을 장식했던 영화 2005년 에서 강렬한 연기변신으로 깊은 인상을 남겼으며 이후 차기작에 대해 꾸준히 높은 기대와 관심을 모아왔던 배우 이영애가 13년만의 스크린 복귀작 로 돌아온다. 는 6년 전 실종된 아들과 생김새부터 흉터 자국까지 똑같은 아이를 봤다는 의문의 연락을 받은 정연이 낯선 마을로 아이를 찾아 나서며 벌어지는 예측할 수 없는 이야기를 그린 영화다. 에서 이영애는 아들을 잃어버린 실의와 죄책감, 그리움으로 6년의 시간을 보내면서도 아이를 찾을 수 있다는 희망을 포기하지 않는 정연 역을 맡았다. 자식을 잃어버린 부모의 깊이를 가늠할 수 없는 아픔부터 누구도 믿을 수 없는 상황 속 홀로 아들을 찾아 나서는 강인함까지 보여줄 이영애는 복잡한 감정이 응축된 입체적인 모성애 연기로 공감을 이끌어낼 것이다. 드라마 [응답하라 1988]에서 동룡의 아빠 역할로 맛깔스런 연기를 보여준데 이어 [비밀의 숲]에서 감춰뒀던 야망과 권력욕을 드러내는 차장검사 이창준 역을 맡아 서늘한 카리스마로 시청자들을 압도했던 배우 유재명이 에서 작은 해안 마을 파출소에 근무하는 홍경장 역으로 합류했다. 나름의 규칙과 은폐, 권력으로 유지해오던 마을에 실종된 아들을 찾겠다고 정연이 나타나며 균열이 생기자 불편한 기색을 감추지 못하는 홍경장을 연기한 유재명은 강한 존재감의 연기로 극에 긴장감을 불어넣을 것이다. 또한 드라마 [굿와이프]의 당돌한 신입 변호사로 전도연과 미묘한 신경전을, 그리고 영화 에서 김하늘과 파격적인 호흡으로 주목받은 이원근이 에서 정연이 아들을 찾을 수 있도록 곁에서 돕는 전국미아찾기협회 청년 승현 역을 맡았다. 어린 시절 부모를 잃어버리고 입양됐던 자신의 아픔이 되풀이 되지 않기를 바라는 승현 역의 이원근은 밝고 건강하면서도 단단한 속내를 지닌 인물로 한층 성숙한 면모를 보여줄 것이다. 여기에 4등에 이어 최근 까지 바쁜 행보를 이어가고 있는 배우 박해준이 정연의 남편 명국 역을 맡아 이영애와 부부 호흡을 맞출 예정으로 탄탄한 캐스팅 라인에 힘을 더했다. 이영애, 유재명, 이원근, 박해준을 비롯 배우들의 캐스팅을 완료한 는 지난 5월 11일 금 대본 리딩과 무사 촬영을 기원하는 고사를 마쳤다. 이날 처음 한자리에 모인 배우들은 화기애애한 분위기 가운데에서도 캐릭터에 완벽 몰입한 모습으로 열기를 더했다. 로 스크린 컴백에 나선 이영애는 오랜만에 이렇게 인연이 되어 만나게 돼서 감사하다. 3개월 간 서로 보듬어가고 정을 나누며 촬영하는 과정이 즐겁다면 그 결과 또한 좋을 것이라고 생각한다. 부족하나마 최선을 다해 열심히 촬영하겠다라고 촬영에 대한 기대와 소감을 전했다. 실종된 아이를 둘러싸고 벌어지는 팽팽한 긴장과 드라마틱한 전개에 깊은 내공과 실력을 지닌 배우들의 결합이 더해져 한층 기대를 높이는 영화 는 5월 14일 월 크랭크인, 본격적인 촬영에 돌입했다."
                },
                "sub_template_type": "normal1 HERE",
                "start_date": {
                    "millisecond": "",
                    "second": "",
                    "hour": "11",
                    "year": "2018",
                    "format": "",
                    "day": "16",
                    "minute": "08",
                    "month": "05"
                }
            },
            {
                "media": {
                    "url": "https://entertain.naver.com/movie/now/read?oid=023&aid=0003373048",
                    "caption": "",
                    "thumb": "",
                    "credit": ""
                },
                "number_info": "9:54",
                "background_image_url": "background_image_url HERE",
                "text": {
                    "video_url": "",
                    "sub_text3": "사진 : 좌부터 영화 나를 찾아줘의 배우 이원근 박해준 이영애 김승우 감독 유재명 / 워너브라더스코리아 제공 배우 이영애의 13년만의 스크린 복귀작으로 기대를 모으는 영화 김승우 감독 가 깊은 내공의 실력파 배우 유재명, 이원근, 박해준 등 캐스팅을 완료, 리딩과 고사를 마치고 5월 14일 월 전격 크랭크인 했다. 또한 드라마 [굿와이프]의 당돌한 신입 변호사로 전도연과 미묘한 신경전을, 그리고 영화 에서 김하늘과 파격적인 호흡으로 주목받은 이원근이 에서 정연이 아들을 찾을 수 있도록 곁에서 돕는 전국미아찾기협회 청년 승현 역을 맡았다. ",
                    "sub_text2": "사진 : 좌부터 영화 나를 찾아줘의 배우 이원근 박해준 이영애 김승우 감독 유재명 / 워너브라더스코리아 제공 배우 이영애의 13년만의 스크린 복귀작으로 기대를 모으는 영화 김승우 감독 가 깊은 내공의 실력파 배우 유재명, 이원근, 박해준 등 캐스팅을 완료, 리딩과 고사를 마치고 5월 14일 월 전격 크랭크인 했다. 극 중 이영애는 아들을 잃어버린 실의와 죄책감, 그리움으로 6년의 시간을 보내면서도 아이를 찾을 수 있다는 희망을 포기하지 않는 정연 역을 맡았다. 자식을 잃어버린 부모의 깊이를 가늠할 수 없는 아픔부터 누구도 믿을 수 없는 상황 속 홀로 아들을 찾아 나서는 강인함까지 보여줄 이영애는 복잡한 감정이 응축된 입체적인 모성애 연기로 공감을 이끌어낼 것으로 기대된다. 드라마 [응답하라 1988]에서 동룡의 아빠 역할로 맛깔스런 연기를 보여준데 이어 [비밀의 숲]에서 감춰뒀던 야망과 권력욕을 드러내는 차장검사 이창준 역을 맡아 서늘한 카리스마로 시청자들을 압도했던 배우 유재명이 에서 작은 해안 마을 파출소에 근무하는 홍경장 역으로 합류했다. 또한 드라마 [굿와이프]의 당돌한 신입 변호사로 전도연과 미묘한 신경전을, 그리고 영화 에서 김하늘과 파격적인 호흡으로 주목받은 이원근이 에서 정연이 아들을 찾을 수 있도록 곁에서 돕는 전국미아찾기협회 청년 승현 역을 맡았다. ",
                    "sub_title": "이영애, '나를 찾아줘'로 13년 만에 스크린 복귀..유재명X이원근X박해준 합류",
                    "image_url": [
                        "https://ssl.pstatic.net/mimgnews/image/023/2018/05/16/2018051600888_0_20180516100004114.jpg?type=w540"
                    ],
                    "sub_text": "사진 : 좌부터 영화 나를 찾아줘의 배우 이원근 박해준 이영애 김승우 감독 유재명 / 워너브라더스코리아 제공 배우 이영애의 13년만의 스크린 복귀작으로 기대를 모으는 영화 김승우 감독 가 깊은 내공의 실력파 배우 유재명, 이원근, 박해준 등 캐스팅을 완료, 리딩과 고사를 마치고 5월 14일 월 전격 크랭크인 했다. 박찬욱 감독의 복수 3부작 그 대단원을 장식했던 영화 2005년 에서 강렬한 연기변신으로 깊은 인상을 남겼으며 이후 차기작에 대해 꾸준히 높은 기대와 관심을 모아왔던 이영애가 13년만의 스크린 복귀작 로 돌아온다. 영화 는 6년 전 실종된 아들과 생김새부터 흉터 자국까지 똑같은 아이를 봤다는 의문의 연락을 받은 정연이 낯선 마을로 아이를 찾아 나서며 벌어지는 예측할 수 없는 이야기를 그린다. 극 중 이영애는 아들을 잃어버린 실의와 죄책감, 그리움으로 6년의 시간을 보내면서도 아이를 찾을 수 있다는 희망을 포기하지 않는 정연 역을 맡았다. 자식을 잃어버린 부모의 깊이를 가늠할 수 없는 아픔부터 누구도 믿을 수 없는 상황 속 홀로 아들을 찾아 나서는 강인함까지 보여줄 이영애는 복잡한 감정이 응축된 입체적인 모성애 연기로 공감을 이끌어낼 것으로 기대된다. 드라마 [응답하라 1988]에서 동룡의 아빠 역할로 맛깔스런 연기를 보여준데 이어 [비밀의 숲]에서 감춰뒀던 야망과 권력욕을 드러내는 차장검사 이창준 역을 맡아 서늘한 카리스마로 시청자들을 압도했던 배우 유재명이 에서 작은 해안 마을 파출소에 근무하는 홍경장 역으로 합류했다. 나름의 규칙과 은폐, 권력으로 유지해오던 마을에 실종된 아들을 찾겠다고 정연이 나타나며 균열이 생기자 불편한 기색을 감추지 못하는 홍경장을 연기한 유재명은 강한 존재감의 연기로 극에 긴장감을 불어넣을 예정. 또한 드라마 [굿와이프]의 당돌한 신입 변호사로 전도연과 미묘한 신경전을, 그리고 영화 에서 김하늘과 파격적인 호흡으로 주목받은 이원근이 에서 정연이 아들을 찾을 수 있도록 곁에서 돕는 전국미아찾기협회 청년 승현 역을 맡았다. 어린 시절 부모를 잃어버리고 입양됐던 자신의 아픔이 되풀이 되지 않기를 바라는 승현 역의 이원근은 밝고 건강하면서도 단단한 속내를 지닌 인물로 한층 성숙한 면모를 보여줄 예정이다. 여기에 4등에 이어 최근 까지 바쁜 행보를 이어가고 있는 배우 박해준이 정연의 남편 명국 역을 맡아 이영애와 부부 호흡을 맞춘다. 지난 11일 대본 리딩과 무사 촬영을 기원하는 고사 현장에서 이영애는 오랜만에 이렇게 인연이 되어 만나게 돼서 감사하다. 3개월 간 서로 보듬어가고 정을 나누며 촬영하는 과정이 즐겁다면 그 결과 또한 좋을 것이라고 생각한다. 부족하나마 최선을 다해 열심히 촬영하겠다라고 촬영에 대한 기대와 소감을 전했다."
                },
                "sub_template_type": "normal1 HERE",
                "start_date": {
                    "millisecond": "",
                    "second": "",
                    "hour": "9",
                    "year": "2018",
                    "format": "",
                    "day": "16",
                    "minute": "54",
                    "month": "05"
                }
            },
            {
                "media": {
                    "url": "https://entertain.naver.com/movie/now/read?oid=112&aid=0003030900",
                    "caption": "",
                    "thumb": "",
                    "credit": ""
                },
                "number_info": "12:06",
                "background_image_url": "background_image_url HERE",
                "text": {
                    "video_url": "",
                    "sub_text3": "이영애의 13년만의 스크린 복귀작으로 기대를 모으는 나를 찾아줘가 깊은 내공의 실력파 배우 유재명, 이원근, 박해준 등 캐스팅을 완료했다. 이영애, 유재명, 이원근, 박해준을 비롯 배우들의 캐스팅을 완료한 나를 찾아줘는 지난 11일 대본 리딩과 무사 촬영을 기원하는 고사를 마쳤다. ",
                    "sub_text2": "이영애의 13년만의 스크린 복귀작으로 기대를 모으는 나를 찾아줘가 깊은 내공의 실력파 배우 유재명, 이원근, 박해준 등 캐스팅을 완료했다. 나름의 규칙과 은폐, 권력으로 유지해오던 마을에 실종된 아들을 찾겠다고 정연이 나타나며 균열이 생기자 불편한 기색을 감추지 못하는 홍경장을 연기한 유재명은 강한 존재감의 연기로 극에 긴장감을 불어넣을 것이다. 또한 드라마 굿와이프의 당돌한 신입 변호사로 전도연과 미묘한 신경전을, 그리고 영화 여교사에서 김하늘과 파격적인 호흡으로 주목받은 이원근이 나를 찾아줘에서 정연이 아들을 찾을 수 있도록 곁에서 돕는 전국미아찾기협회 청년 승현 역을 맡았다. 이영애, 유재명, 이원근, 박해준을 비롯 배우들의 캐스팅을 완료한 나를 찾아줘는 지난 11일 대본 리딩과 무사 촬영을 기원하는 고사를 마쳤다. 실종된 아이를 둘러싸고 벌어지는 팽팽한 긴장과 드라마틱한 전개에 깊은 내공과 실력을 지닌 배우들의 결합이 더해져 한층 기대를 높이는 나를 찾아줘는 지난 14일 크랭크인, 본격적인 촬영에 돌입했다. ",
                    "sub_title": "이영애·유재명·이원근·박해준 '나를 찾아줘' 캐스팅…본격 촬영돌입",
                    "image_url": [
                        "https://mimgnews.pstatic.net/image/112/2018/05/16/201805161159037452864_20180516120323_01_20180516120611143.jpg?type=w540",
                        "https://ssl.pstatic.net/mimgnews/image/112/2018/05/16/201805161159037452864_20180516120323_02_20180516120611149.jpg?type=w540"
                    ],
                    "sub_text": "이영애의 13년만의 스크린 복귀작으로 기대를 모으는 나를 찾아줘가 깊은 내공의 실력파 배우 유재명, 이원근, 박해준 등 캐스팅을 완료했다. 영화 나를 찾아줘는 6년 전 실종된 아들과 생김새부터 흉터 자국까지 똑같은 아이를 봤다는 의문의 연락을 받은 정연이 낯선 마을로 아이를 찾아 나서며 벌어지는 예측할 수 없는 이야기를 그린 작품이다. 박찬욱 감독의 복수 3부작 그 대단원을 장식했던 영화 친절한 금자씨 2005년 에서 강렬한 연기변신으로 깊은 인상을 남겼으며 이후 차기작에 대해 꾸준히 높은 기대와 관심을 모아왔던 배우 이영애가 13년만의 스크린 복귀작 나를 찾아줘로 돌아온다. 극중 이영애는 아들을 잃어버린 실의와 죄책감, 그리움으로 6년의 시간을 보내면서도 아이를 찾을 수 있다는 희망을 포기하지 않는 정연 역을 맡았다. 자식을 잃어버린 부모의 깊이를 가늠할 수 없는 아픔부터 누구도 믿을 수 없는 상황 속 홀로 아들을 찾아 나서는 강인함까지 보여줄 이영애는 복잡한 감정이 응축된 입체적인 모성애 연기로 공감을 이끌어낼 것이다. 드라마 응답하라 1988에서 동룡의 아빠 역할로 맛깔스런 연기를 보여준데 이어 비밀의 숲에서 감춰뒀던 야망과 권력욕을 드러내는 차장검사 이창준 역을 맡아 서늘한 카리스마로 시청자들을 압도했던 유재명이 나를 찾아줘에서 작은 해안 마을 파출소에 근무하는 홍경장 역으로 합류했다. 나름의 규칙과 은폐, 권력으로 유지해오던 마을에 실종된 아들을 찾겠다고 정연이 나타나며 균열이 생기자 불편한 기색을 감추지 못하는 홍경장을 연기한 유재명은 강한 존재감의 연기로 극에 긴장감을 불어넣을 것이다. 또한 드라마 굿와이프의 당돌한 신입 변호사로 전도연과 미묘한 신경전을, 그리고 영화 여교사에서 김하늘과 파격적인 호흡으로 주목받은 이원근이 나를 찾아줘에서 정연이 아들을 찾을 수 있도록 곁에서 돕는 전국미아찾기협회 청년 승현 역을 맡았다. 어린 시절 부모를 잃어버리고 입양됐던 자신의 아픔이 되풀이 되지 않기를 바라는 승현 역의 이원근은 밝고 건강하면서도 단단한 속내를 지닌 인물로 한층 성숙한 면모를 보여줄 것이다. 여기에 화이:괴물을 삼킨 아이, 4등에 이어 최근 독전까지 바쁜 행보를 이어가고 있는 박해준이 정연의 남편 명국 역을 맡아 이영애와 부부 호흡을 맞출 예정으로 탄탄한 캐스팅 라인에 힘을 더했다. 이영애, 유재명, 이원근, 박해준을 비롯 배우들의 캐스팅을 완료한 나를 찾아줘는 지난 11일 대본 리딩과 무사 촬영을 기원하는 고사를 마쳤다. 이날 처음 한자리에 모인 배우들은 화기애애한 분위기 가운데에서도 캐릭터에 완벽 몰입한 모습으로 열기를 더했다. 나를 찾아줘로 스크린 컴백에 나선 이영애는 오랜만에 이렇게 인연이 돼 만나게 돼 감사하다. 3개월 간 서로 보듬어가고 정을 나누며 촬영하는 과정이 즐겁다면 그 결과 또한 좋을 것이라고 생각한다. 부족하나마 최선을 다해 열심히 촬영하겠다고 촬영에 대한 기대와 소감을 전했다. 실종된 아이를 둘러싸고 벌어지는 팽팽한 긴장과 드라마틱한 전개에 깊은 내공과 실력을 지닌 배우들의 결합이 더해져 한층 기대를 높이는 나를 찾아줘는 지난 14일 크랭크인, 본격적인 촬영에 돌입했다."
                },
                "sub_template_type": "normal1 HERE",
                "start_date": {
                    "millisecond": "",
                    "second": "",
                    "hour": "12",
                    "year": "2018",
                    "format": "",
                    "day": "16",
                    "minute": "06",
                    "month": "05"
                }
            },
            {
                "media": {
                    "url": "https://entertain.naver.com/movie/now/read?oid=408&aid=0000049798",
                    "caption": "",
                    "thumb": "",
                    "credit": ""
                },
                "number_info": "9:40",
                "background_image_url": "background_image_url HERE",
                "text": {
                    "video_url": "",
                    "sub_text3": "이영애의 13년만의 스크린 복귀작으로 기대를 모으는 영화 나를 찾아줘가 깊은 내공의 실력파 배우 유재명, 이원근, 박해준 등 캐스팅을 완료, 리딩과 고사를 마치고 지난 5월 14일 월 크랭크인 했다. 또한 드라마 [굿와이프]의 당돌한 신입 변호사로 전도연과 미묘한 신경전을, 그리고 영화 여교사에서 김하늘과 파격적인 호흡으로 주목받은 이원근이 나를 찾아줘에서 정연이 아들을 찾을 수 있도록 곁에서 돕는 전국미아찾기협회 청년 승현 역을 맡았다. ",
                    "sub_text2": "이영애의 13년만의 스크린 복귀작으로 기대를 모으는 영화 나를 찾아줘가 깊은 내공의 실력파 배우 유재명, 이원근, 박해준 등 캐스팅을 완료, 리딩과 고사를 마치고 지난 5월 14일 월 크랭크인 했다. 나를 찾아줘에서 이영애는 아들을 잃어버린 실의와 죄책감, 그리움으로 6년의 시간을 보내면서도 아이를 찾을 수 있다는 희망을 포기하지 않는 정연 역을 맡았다. 드라마 [응답하라 1988]에서 동룡의 아빠 역할로 맛깔스런 연기를 보여준데 이어 [비밀의 숲]에서 감춰뒀던 야망과 권력욕을 드러내는 차장검사 이창준 역을 맡아 서늘한 카리스마로 시청자들을 압도했던 배우 유재명이 나를 찾아줘에서 작은 해안 마을 파출소에 근무하는 홍경장 역으로 합류했다. 나름의 규칙과 은폐, 권력으로 유지해오던 마을에 실종된 아들을 찾겠다고 정연이 나타나며 균열이 생기자 불편한 기색을 감추지 못하는 홍경장을 연기한 유재명은 강한 존재감의 연기로 극에 긴장감을 불어넣을 것이다. 또한 드라마 [굿와이프]의 당돌한 신입 변호사로 전도연과 미묘한 신경전을, 그리고 영화 여교사에서 김하늘과 파격적인 호흡으로 주목받은 이원근이 나를 찾아줘에서 정연이 아들을 찾을 수 있도록 곁에서 돕는 전국미아찾기협회 청년 승현 역을 맡았다. ",
                    "sub_title": "‘나를 찾아줘’ 이영애, 13년만의 스크린 복귀작에 실력파 배우 유재명, 이원근, 박해준 합세",
                    "image_url": [
                        "https://ssl.pstatic.net/mimgnews/image/408/2018/05/16/0000049798_001_20180516094019921.jpg?type=w540",
                        "https://mimgnews.pstatic.net/image/408/2018/05/16/0000049798_002_20180516094020352.jpg?type=w540",
                        "https://ssl.pstatic.net/mimgnews/image/408/2018/05/16/0000049798_003_20180516094020704.jpg?type=w540",
                        "https://mimgnews.pstatic.net/image/408/2018/05/16/0000049798_004_20180516094020876.jpg?type=w540"
                    ],
                    "sub_text": "이영애의 13년만의 스크린 복귀작으로 기대를 모으는 영화 나를 찾아줘가 깊은 내공의 실력파 배우 유재명, 이원근, 박해준 등 캐스팅을 완료, 리딩과 고사를 마치고 지난 5월 14일 월 크랭크인 했다. [감독 김승우 제작 26컴퍼니 제공 워너브러더스 픽쳐스 배급 워너브러더스 코리아 주 ] 박찬욱 감독의 복수 3부작 그 대단원을 장식했던 영화 친절한 금자씨 2005년 에서 강렬한 연기변신으로 깊은 인상을 남겼으며 이후 차기작에 대해 꾸준히 높은 기대와 관심을 모아왔던 배우 이영애가 13년만의 스크린 복귀작 나를 찾아줘로 돌아온다. 나를 찾아줘는 6년 전 실종된 아들과 생김새부터 흉터 자국까지 똑같은 아이를 봤다는 의문의 연락을 받은 정연이 낯선 마을로 아이를 찾아 나서며 벌어지는 예측할 수 없는 이야기를 그린 영화다. 나를 찾아줘에서 이영애는 아들을 잃어버린 실의와 죄책감, 그리움으로 6년의 시간을 보내면서도 아이를 찾을 수 있다는 희망을 포기하지 않는 정연 역을 맡았다. 자식을 잃어버린 부모의 깊이를 가늠할 수 없는 아픔부터 누구도 믿을 수 없는 상황 속 홀로 아들을 찾아 나서는 강인함까지 보여줄 이영애는 복잡한 감정이 응축된 입체적인 모성애 연기로 공감을 이끌어낼 것이다. 드라마 [응답하라 1988]에서 동룡의 아빠 역할로 맛깔스런 연기를 보여준데 이어 [비밀의 숲]에서 감춰뒀던 야망과 권력욕을 드러내는 차장검사 이창준 역을 맡아 서늘한 카리스마로 시청자들을 압도했던 배우 유재명이 나를 찾아줘에서 작은 해안 마을 파출소에 근무하는 홍경장 역으로 합류했다. 나름의 규칙과 은폐, 권력으로 유지해오던 마을에 실종된 아들을 찾겠다고 정연이 나타나며 균열이 생기자 불편한 기색을 감추지 못하는 홍경장을 연기한 유재명은 강한 존재감의 연기로 극에 긴장감을 불어넣을 것이다. 또한 드라마 [굿와이프]의 당돌한 신입 변호사로 전도연과 미묘한 신경전을, 그리고 영화 여교사에서 김하늘과 파격적인 호흡으로 주목받은 이원근이 나를 찾아줘에서 정연이 아들을 찾을 수 있도록 곁에서 돕는 전국미아찾기협회 청년 승현 역을 맡았다. 어린 시절 부모를 잃어버리고 입양됐던 자신의 아픔이 되풀이 되지 않기를 바라는 승현 역의 이원근은 밝고 건강하면서도 단단한 속내를 지닌 인물로 한층 성숙한 면모를 보여줄 것이다. 여기에 화이:괴물을 삼킨 아이 4등에 이어 최근 독전까지 바쁜 행보를 이어가고 있는 배우 박해준이 정연의 남편 명국 역을 맡아 이영애와 부부 호흡을 맞출 예정으로 탄탄한 캐스팅 라인에 힘을 더했다. 이영애, 유재명, 이원근, 박해준을 비롯 배우들의 캐스팅을 완료한 나를 찾아줘는 지난 5월 11일 금 대본 리딩과 무사 촬영을 기원하는 고사를 마쳤다. 이날 처음 한자리에 모인 배우들은 화기애애한 분위기 가운데에서도 캐릭터에 완벽 몰입한 모습으로 열기를 더했다. 나를 찾아줘로 스크린 컴백에 나선 이영애는 오랜만에 이렇게 인연이 되어 만나게 돼서 감사하다. 3개월 간 서로 보듬어가고 정을 나누며 촬영하는 과정이 즐겁다면 그 결과 또한 좋을 것이라고 생각한다. 부족하나마 최선을 다해 열심히 촬영하겠다라고 촬영에 대한 기대와 소감을 전했다. 실종된 아이를 둘러싸고 벌어지는 팽팽한 긴장과 드라마틱한 전개에 깊은 내공과 실력을 지닌 배우들의 결합이 더해져 한층 기대를 높이는 영화 나를 찾아줘는 5월 14일 월 크랭크인, 본격적인 촬영에 돌입했다."
                },
                "sub_template_type": "normal1 HERE",
                "start_date": {
                    "millisecond": "",
                    "second": "",
                    "hour": "9",
                    "year": "2018",
                    "format": "",
                    "day": "16",
                    "minute": "40",
                    "month": "05"
                }
            },
            {
                "media": {
                    "url": "https://entertain.naver.com/movie/now/read?oid=109&aid=0003782599",
                    "caption": "",
                    "thumb": "",
                    "credit": ""
                },
                "number_info": "7:21",
                "background_image_url": "background_image_url HERE",
                "text": {
                    "video_url": "",
                    "sub_text3": "버닝은 수상이 유력시 되는 가운데, 스티븐연, 전종서 등 주연 배우들이 연이어 논란에 휘말리며 곤혹을 겪고 있다. 그러나 스티븐연은 지난해 옥자로 칸을 찾았을 당시 봉준호 감독, 안서현과 함께 한국 취재진과 함께 하는 일정에 당연하게 참석했고, 스티븐연과 전종서 모두 앞서 버닝의 주연으로 인터뷰를 진행할 것으로 전해진 만큼 이번 일정 불참은 논란을 의식한 것이라는 해석될 수밖에 없는 상황이다. ",
                    "sub_text2": "버닝은 거장 이창동 감독이 무려 8년 만에 선보이는 신작으로, 한국 영화로는 유일하게 올해 칸영화제 경쟁 부문에 진출했다. 이창동 감독은 밀양, 시에 이어 버닝으로 칸영화제 3연속 경쟁 진출에 성공했다. 이창동 감독은 칸 경쟁 부문에 진출해 단 한 번도 빈손으로 돌아간 적이 없는 만큼, 올해 수상도 유력시된다. 그나마 올해 칸영화제 포스터의 주인공이기도 한 누벨바그의 거장 장 뤽 고다르 감독의 이미지 북 Image Book , 한국 배우 유태오가 주연을 맡아 화제가 된 러시아 영화 레토, 고레에다 히로카즈 감독의 신작 만비키 가족 등이 평론가들의 높은 평점을 싹쓸이 하고 있는 가운데, 이 작품들을 이어 버닝이 출격을 준비 중이다. 버닝은 수상이 유력시 되는 가운데, 스티븐연, 전종서 등 주연 배우들이 연이어 논란에 휘말리며 곤혹을 겪고 있다. 스티븐연은 욱일기 논란으로 파장을 일으켰다. 스티븐연은 메이헴을 함께 한 조 린치 감독이 SNS에 올린 욱일기를 입은 소년의 사진에 좋아요를 표시했다. 스티븐연은 사과문을 올렸지만, 진짜 문제는 이후부터였다. 논란을 의식한 탓인지 스티븐연과 전종서는 유아인, 이창동 감독과 함께 참석 예정이었던 한국 취재진과의 인터뷰 일정에 불참을 선언했다. 그러나 스티븐연은 지난해 옥자로 칸을 찾았을 당시 봉준호 감독, 안서현과 함께 한국 취재진과 함께 하는 일정에 당연하게 참석했고, 스티븐연과 전종서 모두 앞서 버닝의 주연으로 인터뷰를 진행할 것으로 전해진 만큼 이번 일정 불참은 논란을 의식한 것이라는 해석될 수밖에 없는 상황이다. ",
                    "sub_title": "[Oh!쎈 초점] 스티븐연 욱일기→전종서 태도…'버닝', 작품으로 논란 덮을까",
                    "image_url": [
                        "https://ssl.pstatic.net/mimgnews/image/109/2018/05/16/0003782599_001_20180516072111099.jpg?type=w540",
                        "https://mimgnews.pstatic.net/image/109/2018/05/16/0003782599_002_20180516072111116.jpg?type=w540"
                    ],
                    "sub_text": "영화 버닝은 작품으로 기대만큼이나 뜨거운 논란도 잠재울 수 있을까. 제71회 칸국제영화제 이하 칸영화제 경쟁 부문에 진출한 한국 영화는 16일 현지시각 공식 상영을 통해 마침내 베일을 벗는다. 칸 상영 전 국내에서 언론배급시사회를 통해 한 발 앞서 공개되긴 했지만, 월드 프리미어를 원칙으로 하는 칸영화제에 초청된 만큼 칸 공개까지는 엠바고 보도 시점 유예 가 걸려 있는 상황. 공식적인 첫 공개는 칸영화제 상영이 최초다. 버닝은 거장 이창동 감독이 무려 8년 만에 선보이는 신작으로, 한국 영화로는 유일하게 올해 칸영화제 경쟁 부문에 진출했다. 이창동 감독은 밀양, 시에 이어 버닝으로 칸영화제 3연속 경쟁 진출에 성공했다. 이창동 감독은 밀양으로 전도연에게 여우주연상을 안기며 전무후무, 유일무이한 칸의 여왕이라는 수식어를 선사했고, 시로는 본인이 각본상을 수상하는 영광을 품에 안았다. 이창동 감독은 칸 경쟁 부문에 진출해 단 한 번도 빈손으로 돌아간 적이 없는 만큼, 올해 수상도 유력시된다. 무엇보다 올해 경쟁 부문이 예년보다 경쟁이 치열하지 못하다는 점 역시 이창동 감독의 수상 가능성을 높인다. 세계적인 감독들이 앞다퉈 신작을 선보였던 지난해와는 달리, 올해는 화제작이라고 할 만한 작품이 전무하다고 해도 과언이 아니다. 그나마 올해 칸영화제 포스터의 주인공이기도 한 누벨바그의 거장 장 뤽 고다르 감독의 이미지 북 Image Book , 한국 배우 유태오가 주연을 맡아 화제가 된 러시아 영화 레토, 고레에다 히로카즈 감독의 신작 만비키 가족 등이 평론가들의 높은 평점을 싹쓸이 하고 있는 가운데, 이 작품들을 이어 버닝이 출격을 준비 중이다. 그런데 작품 제목처럼 기대만큼이나 논란 역시 버닝하고 있는 버닝이다. 버닝은 수상이 유력시 되는 가운데, 스티븐연, 전종서 등 주연 배우들이 연이어 논란에 휘말리며 곤혹을 겪고 있다. 스티븐연은 욱일기 논란에 휩싸였고, 전종서는 예상치 못한 태도 논란에 휩싸였다. 두 사람은 결국 칸 주요 일정 중 하나였던 한국 취재진 대상 인터뷰에 불참을 선언하고야 말았다. 스티븐연은 욱일기 논란으로 파장을 일으켰다. 스티븐연은 메이헴을 함께 한 조 린치 감독이 SNS에 올린 욱일기를 입은 소년의 사진에 좋아요를 표시했다. 스티븐연은 사과문을 올렸지만, 진짜 문제는 이후부터였다. 스티븐연은 한글로 된 사과문을 통해서는 \"죄송하다\"고 사과했지만, 영문 사과문에는 \"인터넷만 보고 판단하는 것이 아쉽다\"며 유감을 표하는 듯한 전혀 다른 내용을 담았기 때문. 한글과 영어가 내용이 다른 사과문에 대중의 공분은 들끓었고, 이후 스티븐연은 \"제 무지함으로 사람들에게 상처를 준 것에 대해 정말 죄송하게 생각한다\"며 2차 사과문을 올렸다. 지난 15일 유아인, 이창동 감독과 함께 프랑스로 출국한 전종서 역시 예상치 못한 태도 논란에 휩싸였다. 칸으로 향하기 위해 인천국제공항에 모습을 드러낸 전종서는 취재진을 만나자 들고 있던 옷, 여권 등으로 얼굴을 가렸고, 취재진의 카메라 앞에서 불쾌한 표정을 지으며 심기 불편함을 드러냈다. 이미 알려져 있던 출국 일정인만큼, 공항 취재는 자연스러운 일정이었다. 그러나 불편하다는 듯한 전종서의 표정을 두고 \"적절하지 못한 태도\"였다는 비판과 \"무슨 일 있는 것 아니냐\"는 걱정이 교차하며 대중의 갑론을박이 이어지기도 했다. 이에 전종서의 소속사 마이컴퍼니 측은 에 \" 전종서가 잘 출발했다는 연락을 받았다\"며 \"공항 출국 일정이 비공개인 줄 알았는데, 많은 기자들을 보고 당황하고 놀라서 그런 것 같다. 공항 출국 일정 자체도 처음\"이라고 밝혔다. 논란을 의식한 탓인지 스티븐연과 전종서는 유아인, 이창동 감독과 함께 참석 예정이었던 한국 취재진과의 인터뷰 일정에 불참을 선언했다. 전종서는 한국에 돌아와 일대일 인터뷰를 하겠다고 밝혔고, 스티븐연은 한국 언론 인터뷰를 제외한 공식 일정에만 당초 참석하기로 약속했다는 입장이다. 그러나 스티븐연은 지난해 옥자로 칸을 찾았을 당시 봉준호 감독, 안서현과 함께 한국 취재진과 함께 하는 일정에 당연하게 참석했고, 스티븐연과 전종서 모두 앞서 버닝의 주연으로 인터뷰를 진행할 것으로 전해진 만큼 이번 일정 불참은 논란을 의식한 것이라는 해석될 수밖에 없는 상황이다. 이런 가운데 버닝은 마침내 전 세계에서 가장 깐깐한 관객들 앞에서 첫 선을 보인다. 앞서 세상을 떠난 칸의 대부 피에르 르시앙은 버닝에 대해 \"영화 자체로서의 맥박으로 그만의 고유한 생명력을 얻었다\"고 평가한 바 있다. 칸의 극찬을 받을 준비가 되어 있는 버닝, 과연 논란도 삼킬 수 있을지 관심이 집중된다."
                },
                "sub_template_type": "normal1 HERE",
                "start_date": {
                    "millisecond": "",
                    "second": "",
                    "hour": "7",
                    "year": "2018",
                    "format": "",
                    "day": "16",
                    "minute": "21",
                    "month": "05"
                }
            },
            {
                "media": {
                    "url": "https://entertain.naver.com/movie/now/read?oid=112&aid=0003031483",
                    "caption": "",
                    "thumb": "",
                    "credit": ""
                },
                "number_info": "22:19",
                "background_image_url": "background_image_url HERE",
                "text": {
                    "video_url": "",
                    "sub_text3": "허준호는 \"불한당 제작팀과 설경구에게 감사하다. 잊지 않아주셨으면 감사하겠다\"고 당부했다.사진 전혜진은 \"나도 불한당을 아끼고 사랑하는데 이런 게 팬심이라는 걸 처음 느꼈다. ",
                    "sub_text2": "영화 불한당: 나쁜 놈들의 세상 감독 변성현/제작 CJ엔터테인먼트, 폴룩스바른손 개봉 1주년 기념 상영회가 17일 오후 서울 송파구 롯데시네마 월드타워에서 열렸다. 이날 새벽부터 모인 불한당원들은 현장에서도 환호와 박수갈채를 쏟아냈다.사진 개봉 후 첫 공식 석상에 선 변성현 감독은 \"시나리오를 쓰고 배우들, 스태프들 만나서 찍을 때까지만 해도 이런 일이 있을 거라곤 생각도 못했다. 잊지 못할 선물 받아서 정말 감사하다\"고 감사인사를 전했다.사진 설경구는 \"반갑다. 사랑한다\"고 애정을 뽐낸 뒤 \"불한당 같이 제작했던 팀과 우상을 최근 촬영했다\"며 \"또 급하게 들어간 생일이 있다. 이런 것도 있구나라고 다시 연기하는 것 같은 느낌을 받았다. 허준호는 \"불한당 제작팀과 설경구에게 감사하다. 마지막으로 허준호는 \"나까지 사랑해주셔서 감사하다. 모두 건강하고 행복하길 바란다\"고, 설경구는 \"새벽부터 비오는데 고생했다고 들었다. 각종 영화제를 빛내주셔서 감사하다. 잊지 않아주셨으면 감사하겠다\"고 당부했다.사진 전혜진은 \"나도 불한당을 아끼고 사랑하는데 이런 게 팬심이라는 걸 처음 느꼈다. ",
                    "sub_title": "[종합]\"韓영화계 한 획\"…1주년 '불한당', 불한당원과 의미있는 축하",
                    "image_url": [
                        "https://mimgnews.pstatic.net/image/112/2018/05/17/201805172139485357794_20180517221626_01_20180518070411276.jpg?type=w540",
                        "https://ssl.pstatic.net/mimgnews/image/112/2018/05/17/201805172139485357794_20180517221626_02_20180518070411283.jpg?type=w540",
                        "https://mimgnews.pstatic.net/image/112/2018/05/17/201805172139485357794_20180517221626_04_20180518070411291.jpg?type=w540",
                        "https://ssl.pstatic.net/mimgnews/image/112/2018/05/17/201805172139485357794_20180517221626_03_20180518070411297.jpg?type=w540",
                        "https://mimgnews.pstatic.net/image/112/2018/05/17/201805172139485357794_20180517221626_06_20180518070411304.jpg?type=w540",
                        "https://ssl.pstatic.net/mimgnews/image/112/2018/05/17/201805172139485357794_20180517221626_05_20180518070411310.jpg?type=w540"
                    ],
                    "sub_text": "한국 영화계 이례적 팬덤 불한당원들이 불한당: 나쁜 놈들의 세상 1주년을 맞아 특별한 시간을 보냈다. 영화 불한당: 나쁜 놈들의 세상 감독 변성현/제작 CJ엔터테인먼트, 폴룩스바른손 개봉 1주년 기념 상영회가 17일 오후 서울 송파구 롯데시네마 월드타워에서 열렸다. 변성현 감독과 배우 설경구, 김희원, 전혜진, 허준호가 참석했다. 불한당: 나쁜 놈들의 세상은 범죄조직 1인자를 노리는 재호 설경구 와 세상 무서운 것 없는 패기 넘치는 신참 현수 임시완 가 교도소에서 만나 의리를 다지고, 출소 이후 의기투합하던 중 서로에 대해 새로운 사실을 알게 되면서 벌어지는 범죄액션드라마다. 이번 행사는 개봉 후 1년이 지났지만 여전히 영화에 대한 뜨거운 사랑을 보내며 영화계의 신팬덤 현상을 만들고 있는 팬들에게 감사의 의미를 전하고자 기획됐다. 개봉 후 1년이 지난 영화의 감사 행사를 진행하는 것은 매우 이례적인 것이다. 이날 새벽부터 모인 불한당원들은 현장에서도 환호와 박수갈채를 쏟아냈다.사진 개봉 후 첫 공식 석상에 선 변성현 감독은 \"시나리오를 쓰고 배우들, 스태프들 만나서 찍을 때까지만 해도 이런 일이 있을 거라곤 생각도 못했다. 다른 영화들도 마찬가지인데, 불한당은 관객들이 완성시켜준 느낌이 크게 든다. 열심히 만들어서 보여드렸는데 호흡을 넣어주셔서 다시 선물 받은 것 같다. 잊지 못할 선물 받아서 정말 감사하다\"고 감사인사를 전했다.사진 설경구는 \"반갑다. 이전에도 없었고 앞으로도 없을 것 같은 사랑을 1년 동안 주셔서 감사하다. 그 힘으로 계속 잘해나갈 것 같다. 사랑한다\"고 애정을 뽐낸 뒤 \"불한당 같이 제작했던 팀과 우상을 최근 촬영했다\"며 \"또 급하게 들어간 생일이 있다. 계획된 영화는 아니었는데 이창동 감독님이 제작을 해서 거부하지 못해 하게 됐다. 전도연 씨와 촬영하고 있다\"고 근황을 알렸다.사진 김희원은 \"살맛이 생겼다. 불한당 보시기 전과 후가 어떻게 달라졌는지 여러분들께 물어보고 싶었다. 연기하면서 불한당 하기 전과 후가 달라진 것 같다. 이런 것도 있구나라고 다시 연기하는 것 같은 느낌을 받았다. 행복하게 바뀌었다\"고 털어놨다. 허준호는 \"불한당 제작팀과 설경구에게 감사하다. 이 일을 오랜만에 다시 시작할 수 있게 해줬다\"며 \"오랜만에 경구와 할 수 있었다는 것에 대해 감사하다. 그 이후 작품을 많이 하고 있다\"고 고마운 마음을 드러냈다. 마지막으로 허준호는 \"나까지 사랑해주셔서 감사하다. 모두 건강하고 행복하길 바란다\"고, 설경구는 \"새벽부터 비오는데 고생했다고 들었다. 영화를 꽤 했다고 한 사람인데 이런 경험을 해본 적이 없었고, 앞으로도 이런 귀한 경험을 하지 못할 것 같다. 천운을 받았다고 생각한다. 각종 영화제를 빛내주셔서 감사하다. 불한당원은 한국 영화계의 큰 획을 그었다고 생각한다. 큰 힘 주셔서 감사하다. 잊지 않아주셨으면 감사하겠다\"고 당부했다.사진 전혜진은 \"나도 불한당을 아끼고 사랑하는데 이런 게 팬심이라는 걸 처음 느꼈다. 어디 가든 든든하고, 으쓱으쓱한다. 이런 느낌 주셔서 감사하고, 고맙다. 끝까지 갑시다\"고, 김희원은 \"너무 감사하다는 말 하고 싶은데 말로는 잘 표현이 안 된다. 경구 형님이 말씀하셨듯 대한민국 영화의 새로운 역사를 쓰신 것 같다. 다시는 이런 일이 없지 않을까 생각이 든다. 말로 표현 못할 만큼 감사드린다. 불한당 이후 영화계도 달라졌다. 불한당원들을 다르게 본다. 대단하다\"고 치켜세웠다. 팬들이 자진해서 이 같은 단체관람을 1년 넘게 이어가는 것은 불한당: 나쁜 놈들의 세상이 최초다."
                },
                "sub_template_type": "normal1 HERE",
                "start_date": {
                    "millisecond": "",
                    "second": "",
                    "hour": "22",
                    "year": "2018",
                    "format": "",
                    "day": "17",
                    "minute": "19",
                    "month": "05"
                }
            },
            {
                "media": {
                    "url": "https://entertain.naver.com/movie/now/read?oid=076&aid=0003258032",
                    "caption": "",
                    "thumb": "",
                    "credit": ""
                },
                "number_info": "17:03",
                "background_image_url": "background_image_url HERE",
                "text": {
                    "video_url": "",
                    "sub_text3": "아이온시네마에 이어 공개된 이탈리아 영화지 ICS 필름 International Cinephile Society Films 의 평점 역시 버닝에 압도적인 평점을 선사했다. ICS는 버닝에 4.83점을 내렸고 이는 이미지의 책 장 뤽 고다르 감독 이 받은 평점 4.43점 보다 0.40 높은 점수로, 아이온시네마와 마찬가지로 현재 공개된 경쟁작 중 1위를 달리고 있다. ",
                    "sub_text2": "또한 마카오 국제영화제 집행위원장인 마이크 굿리지는 버닝을 올해 칸에서 본 최고의 영화이자 진정한 걸작이라고 소개했고 토론토 국제영화제 프로그래머인 지오바나 풀비 역시 \"최고의 영화였다. 영화지의 평점 반응도 상당했다. 아이온시네마, 스크린데일리, 르필름프랑세즈 등 유력 영화지는 칸 영화제 기간 중 경쟁부문 공식 스크리닝이 진행될 때마다 유력 영화인들의 평가로 별점을 매기고 해당 별점은 황금종려상 수상 여부에도 영향을 미친다. 일단 버닝 상영 직후 가장 빠르게 공개된 미국 영화잡지 아이온시네마의 평점은 버닝에 최고점인 5점 만점의 3.9점을 내렸다. 이는 17일까지 공개된 16편의 경쟁부문 진출작 중 최고점 기록이다. 앞서 버닝이 공개되기 전 유력한 황금종려 수상작으로 거론되고 있는 콜드 워 파벨 포리코브스키 감독 의 평점은 3.7점으로 버닝이 0.2점을 앞서며 공개작 중 1위를 달리고 있다. 아이온시네마에 이어 공개된 이탈리아 영화지 ICS 필름 International Cinephile Society Films 의 평점 역시 버닝에 압도적인 평점을 선사했다. ICS는 버닝에 4.83점을 내렸고 이는 이미지의 책 장 뤽 고다르 감독 이 받은 평점 4.43점 보다 0.40 높은 점수로, 아이온시네마와 마찬가지로 현재 공개된 경쟁작 중 1위를 달리고 있다. 물론 아직 모든 영화지의 평점이 공개된 것도, 모든 경쟁작이 공개된 것도 아니다. 또한 영화지의 평점이 황금종려상 수상에 직결되는 것은 아니다. ",
                    "sub_title": "[SC이슈] 잇따른 최고평점...'버닝' 황금종려상 낭보 알릴까(종합)",
                    "image_url": [
                        "https://mimgnews.pstatic.net/image/076/2018/05/17/2018051801001640800124173_20180517170610361.jpg?type=w540",
                        "https://ssl.pstatic.net/mimgnews/image/076/2018/05/17/2018051801001640800124174_20180517170610370.jpg?type=w540",
                        "https://mimgnews.pstatic.net/image/076/2018/05/17/2018051801001640800124171_20180517170610343.jpg?type=w540",
                        "https://ssl.pstatic.net/mimgnews/image/076/2018/05/17/2018051801001640800124172_20180517170610352.jpg?type=w540"
                    ],
                    "sub_text": "전세계 영화인들이 꿈꾸는 최고 영예, 칸영화제 황금종려상 트로피를 버닝이 한국영화 최초로 들어 올릴 수 있을까. 17일 이하 한국시각 제71회 칸국제영화제에서 공개된 이창동 감독의 신작 버닝 파인하우스필름 NHK 나우필름 제작 이 영화매체로부터 연달아 최고 평점을 받으며 유력한 수상작으로 거론되고 있다. 버닝은 올해 영화제 경쟁부문에 한국 영화로는 유일하게 초청됐다. 8년 만에 영화 무대에 복귀한 이창동 감독의 신작이란 점 외에, 파격적인 줄거리, 한국 스크린의 젊은 기둥 유아인과 재미교포 스타 스티븐 연을 투톱으로 캐스팅했다는 점에서 제작단계부터 세계 영화계가 주목했던 문제작이다. 이날 버닝이 공식 스크리닝 월드프리미어를 진행한 칸 뤼미에르 대극장에는 기대감을 반영하듯 2300여명의 관객으로 가득찼고 상영이 끝난 뒤엔 이창동 감독을 비롯해 배우들을 향한 찬사와 경의의 기립박수가 5분간 이어졌다. 거장의 귀환에 모두가 매료된 밤이었다. 티에리 프리모 영화제 집행 위원장은 \"대단하고, 훌륭하며 강한 영화\"라며 \"순수한 미장센으로서 영화의 역할을 다하며 관객의 지적 능력을 기대하는 시적이고 미스터리한 영화\"고 극찬했다. 프랑스 배급사 디아파나 미쉘 생 장 대표는 \"최고의 영화였다. 모든 프레임 하나하나가 완벽하게 연출된 듯 했다. 정말 숨이 막힐 정도의 연출이었다고 생각한다. 영화가 끝났을 때 자리에서 일어나지 않고 계속 더 있었으면 하고 바랄 정도였다. 이창동 감독이 이렇게 엄청난 영화로 돌아온 것이 너무 기쁘다\"고 찬사를 보냈다. 또한 마카오 국제영화제 집행위원장인 마이크 굿리지는 버닝을 올해 칸에서 본 최고의 영화이자 진정한 걸작이라고 소개했고 토론토 국제영화제 프로그래머인 지오바나 풀비 역시 \"최고의 영화였다. 모든 프레임 하나하나하나가 완벽하게 연출됐다\"고 감탄했다. 인디와이어지 평론가 데이비드 엘리치는 버닝을 향해 \"마스터피스\"라는 호평을 전하기도 했다. 그야말로 칸을 뜨겁게 버닝한 이창동 감독의 버닝. 영화지의 평점 반응도 상당했다. 아이온시네마, 스크린데일리, 르필름프랑세즈 등 유력 영화지는 칸 영화제 기간 중 경쟁부문 공식 스크리닝이 진행될 때마다 유력 영화인들의 평가로 별점을 매기고 해당 별점은 황금종려상 수상 여부에도 영향을 미친다. 일단 버닝 상영 직후 가장 빠르게 공개된 미국 영화잡지 아이온시네마의 평점은 버닝에 최고점인 5점 만점의 3.9점을 내렸다. 이는 17일까지 공개된 16편의 경쟁부문 진출작 중 최고점 기록이다. 앞서 버닝이 공개되기 전 유력한 황금종려 수상작으로 거론되고 있는 콜드 워 파벨 포리코브스키 감독 의 평점은 3.7점으로 버닝이 0.2점을 앞서며 공개작 중 1위를 달리고 있다. 아이온시네마에 이어 공개된 이탈리아 영화지 ICS 필름 International Cinephile Society Films 의 평점 역시 버닝에 압도적인 평점을 선사했다. ICS는 버닝에 4.83점을 내렸고 이는 이미지의 책 장 뤽 고다르 감독 이 받은 평점 4.43점 보다 0.40 높은 점수로, 아이온시네마와 마찬가지로 현재 공개된 경쟁작 중 1위를 달리고 있다. 또한 버닝은 ICS에서 황금종려상 수상을 예상하는 황금종려 마크도 2개나 획득했다. 물론 아직 모든 영화지의 평점이 공개된 것도, 모든 경쟁작이 공개된 것도 아니다. 또한 영화지의 평점이 황금종려상 수상에 직결되는 것은 아니다. 최근엔 영화지의 평점과 전혀 다른 수상작이 선정되는 경우가 허다하다. 하지만 올해 칸영화제는 분위기가 다르다. 올해는 예년과 달리 칸영화제에서 공개된 이후 폭발적인 관심과 뜨거운 반응을 얻은 이렇다 할 화제작이 없기 때문. 실제로 후반부에 접어든 올해 칸영화제는 내부적으로 심심하다는 평이 지배적인 상황이다. 작품 외적인 이슈들이 오히려 올해 칸영화제를 채우고 있다는 아쉬운 평도 심심치 않게 들리는 중. 평이한 수준의 경쟁작들의 평이한 경쟁을 펼쳐지고 있는 칸영화제가 버닝을 통해 확실히 분위기가 달아오른 것은 사실이다. 특히 이창동 감독은 앞서 밀양으로 2007년 여우주연상 전도연 을, 시로 각본상을 수상한 전력이 있는, 말 그대로 칸이 사랑하는 감독이다. 버닝에 대한 호평이 쏟아지고 있는 만큼 여러 정황상 수상 가능성은 청신호를 켠 상태다. 칸영화제 폐막식은 현지시각 19일 오후 7시15분 한국시각 20일 새벽 2시15분 에 시작하고, 1시간~1시간30분 후에 대상인 황금종려상을 비롯해 감독상, 남녀주연상, 각본상 등의 주인공이 가려진다. 한편, 버닝은 유통회사 알바생 종수 유아인 가 어릴 적 동네 친구 혜미 전종서 를 만나고, 그녀에게 정체불명의 남자 벤 스티븐 연 를 소개받으면서 벌어지는 비밀스럽고도 강렬한 스토리를 담은 작품이다. 유아인, 스티븐 연, 전종서 등이 출연하고 시 밀양 오아시스 박하사탕을 연출한 이창동 감독이 8년 만에 메가폰을 잡은 신작이다."
                },
                "sub_template_type": "normal1 HERE",
                "start_date": {
                    "millisecond": "",
                    "second": "",
                    "hour": "17",
                    "year": "2018",
                    "format": "",
                    "day": "17",
                    "minute": "03",
                    "month": "05"
                }
            },
            {
                "media": {
                    "url": "https://entertain.naver.com/movie/now/read?oid=119&aid=0002258487",
                    "caption": "",
                    "thumb": "",
                    "credit": ""
                },
                "number_info": "8:57",
                "background_image_url": "background_image_url HERE",
                "text": {
                    "video_url": "",
                    "sub_text3": "종수의 의심은 더 커지고, 해미와 연락이 닿지 않자 종수는 무서운 예감에 사로잡히며 벤을 뒤쫓기 시작한다.영화 버닝은 유통회사 아르바이트생 종수 유아인 가 어린 시절 같은 동네에서 자란 친구 혜미 전종서 를 만나고, 그녀에게 정체불명의 남자 벤 스티븐 연 을 소개받게 되면서 벌어지는 내용을 담는다.파인하우스필름 영화 버닝은 초록물고기 1997 , 박하사탕 2000 , 오아시스 2002 , 밀양 2007 , 시 2010 등을 만든 이창동 감독의 6번째 장편영화다. 영화는 결말에 대한 자세한 설명 없이 극을 마무리한다.영화 버닝은 유통회사 아르바이트생 종수 유아인 가 어린 시절 같은 동네에서 자란 친구 혜미 전종서 를 만나고, 그녀에게 정체불명의 남자 벤 스티븐 연 을 소개받게 되면서 벌어지는 내용을 담는다.파인하우스필름 앞서 이 감독은 \"미스터리 그 자체\"라고 영화를 소개하기도 했다. ",
                    "sub_text2": "그러던 중 벤과 해미는 종수의 집에 찾아오고, 벤은 자신의 비밀스러운 취미를 고백한다. 종수의 의심은 더 커지고, 해미와 연락이 닿지 않자 종수는 무서운 예감에 사로잡히며 벤을 뒤쫓기 시작한다.영화 버닝은 유통회사 아르바이트생 종수 유아인 가 어린 시절 같은 동네에서 자란 친구 혜미 전종서 를 만나고, 그녀에게 정체불명의 남자 벤 스티븐 연 을 소개받게 되면서 벌어지는 내용을 담는다.파인하우스필름 영화 버닝은 초록물고기 1997 , 박하사탕 2000 , 오아시스 2002 , 밀양 2007 , 시 2010 등을 만든 이창동 감독의 6번째 장편영화다. 일본 작가 무라카미 하루키의 단편 헛간을 태우다를 원작으로 한 영화는 유통회사 아르바이트생 종수 유아인 가 어린 시절 같은 동네에서 자란 친구 혜미 전종서 를 만나고, 그녀에게 정체불명의 남자 벤 스티븐 연 을 소개받게 되면서 벌어지는 내용을 담는다. \"사라지고 싶다\"는 해미의 말과 타인의 시선을 의식하지 않고 춤을 추는 해미의 행동에선 자유에 대한 열망이 엿보인다. 해미가 실종된 후 종수가 벤을 의심하고 추적하는 과정은 결말에 대한 궁금증을 증폭시킨다. 영화는 결말에 대한 자세한 설명 없이 극을 마무리한다.영화 버닝은 유통회사 아르바이트생 종수 유아인 가 어린 시절 같은 동네에서 자란 친구 혜미 전종서 를 만나고, 그녀에게 정체불명의 남자 벤 스티븐 연 을 소개받게 되면서 벌어지는 내용을 담는다.파인하우스필름 앞서 이 감독은 \"미스터리 그 자체\"라고 영화를 소개하기도 했다. 그는 또 \" 전작들과 다른 방식으로 관객에게 말을 거는 영화\"라며 \"미스터리 스릴러 장르로 카테고리를 만들 수도 있지만 거기에 머물지 않고 우리가 살고 있는 세상에 대한, 또는 이야기에 대한, 또는 영화 그 자체에 대한 미스터리로 확장할 수 있는 작품\"이라고 설명했다. 종수, 벤, 해미 모두 어떤 단어 하나로 규정할 수 없는 인물이다. 극 초반 해미가 종수에게 던진 \"이제 진실을 말해봐\"라는 대사야 말로 관객이 영화에 묻고 싶은 질문이다. 유아인은 \"표현에 대한 강박에서 벗어나 연기하고 싶었다\"며 \"있는 그대로, 사실적으로 연기하며 해석의 여지가 있는 캐릭터를 표현하는 게 숙제였다\"고 털어놨다. ",
                    "sub_title": "[볼 만해?] 미스터리 투성이·충격 결말…영화 '버닝'",
                    "image_url": [
                        "https://mimgnews.pstatic.net/image/119/2018/05/17/0002258487_001_20180517093211186.jpg?type=w540",
                        "https://ssl.pstatic.net/mimgnews/image/119/2018/05/17/0002258487_002_20180517093211214.jpg?type=w540",
                        "https://mimgnews.pstatic.net/image/119/2018/05/17/0002258487_003_20180517093211230.jpg?type=w540",
                        "https://ssl.pstatic.net/mimgnews/image/119/2018/05/17/0002258487_004_20180517093211238.jpg?type=w540"
                    ],
                    "sub_text": "영화 버닝은 유통회사 아르바이트생 종수 유아인 가 어린 시절 같은 동네에서 자란 친구 혜미 전종서 를 만나고, 그녀에게 정체불명의 남자 벤 스티븐 연 을 소개받게 되면서 벌어지는 내용을 담는다.파인하우스필름이창동 감독 영화 버닝 리뷰유아인 스티브 연 전종서 주연 유통회사 아르바이트생으로 일하며 하루하루, 힘겹게 살아가는 20대 청년 종수 유아인 . 그의 곁엔 가족이 없다. 엄마는 누나와 종수를 두고 집을 떠났고, 아빠는 범죄를 저질러 재판을 받고 있다. 문예창작과를 나온 종수는 작가를 꿈꾸는 청년이기도 하다. 꿈을 이루기에 녹록지 않은 현실을 살고 있던 어느 날, 종수는 배달을 갔다가 어릴 적 같은 동네에서 살았던 해미 전종서 를 만난다. 해미는 믿으면 실제 존재한다고 생각하는 자유로운 영혼의 소유자이자, 종수와 비슷한 처지의 20대 청춘이다. 아프리카 여행을 준비 중인 해미는 종수에게 아프리카에 가 있는 동안 집에서 키우는 고양이를 돌봐달라고 한다. 종수는 선뜻 부탁을 들어줬고, 여행에서 돌아온 해미를 만난다. 그녀는 혼자가 아닌 둘이었다. 정체불명의 남자 벤 스티브 연 이 해미 곁에 있었다. 말끔한 외모에 외제차를 타고, 고급빌라에 사는 벤은 속을 알 수 없는 사람 같다. 종수는 그런 그가 의심스럽기만 하다. 자신이 좋아하는 해미가 종수 곁에 있어 더 그렇다. 그러던 중 벤과 해미는 종수의 집에 찾아오고, 벤은 자신의 비밀스러운 취미를 고백한다. 종수의 의심은 더 커지고, 해미와 연락이 닿지 않자 종수는 무서운 예감에 사로잡히며 벤을 뒤쫓기 시작한다.영화 버닝은 유통회사 아르바이트생 종수 유아인 가 어린 시절 같은 동네에서 자란 친구 혜미 전종서 를 만나고, 그녀에게 정체불명의 남자 벤 스티븐 연 을 소개받게 되면서 벌어지는 내용을 담는다.파인하우스필름 영화 버닝은 초록물고기 1997 , 박하사탕 2000 , 오아시스 2002 , 밀양 2007 , 시 2010 등을 만든 이창동 감독의 6번째 장편영화다. 이 감독은 시 이후 8년 만에 스크린에 돌아왔다. 일본 작가 무라카미 하루키의 단편 헛간을 태우다를 원작으로 한 영화는 유통회사 아르바이트생 종수 유아인 가 어린 시절 같은 동네에서 자란 친구 혜미 전종서 를 만나고, 그녀에게 정체불명의 남자 벤 스티븐 연 을 소개받게 되면서 벌어지는 내용을 담는다. 영화는 희망 없는 내일을 살아가는 청춘들의 분노, 무력감, 그리고 우울함을 담았다. 유아인이 연기한 종수는 시작부터 끝까지 어둡다. 곁을 내어줄 수 있는 가족도 친구도 없다. 그러다 해미를 만나 처음으로 미소 짓지만, 해미를 만나면서 복잡한 감정에 휩싸인다. 전종서가 맡은 해미 역시 오갈 데 없는 청춘을 의미한다. 카드값 때문에 아르바이트를 전전하는 해미는 겉으론 아무 생각 없이 밝아 보이지만, 그 이면엔 슬픔이 느껴진다. \"사라지고 싶다\"는 해미의 말과 타인의 시선을 의식하지 않고 춤을 추는 해미의 행동에선 자유에 대한 열망이 엿보인다. 벤은 겉으로 화려해 보이지만 수상 쩍은 인물이다. 그의 수상한 행동을 아는 사람은 아무도 없다. 버닝은 세 인물을 통해 이 시대를 살아가는 청춘의 어두운 모습을 짚는다. 초반부 드라마 같던 영화는 벤의 등장으로 긴장감을 부여한다. 자신의 취미를 고백하는 벤, 흔들리는 종수, 갑자기 사라진 해미가 맞물리면서 이야기엔 속도가 붙는다. 해미가 실종된 후 종수가 벤을 의심하고 추적하는 과정은 결말에 대한 궁금증을 증폭시킨다. 드디어 마주하게 된 결말은 꽤 충격적이다. 영화는 결말에 대한 자세한 설명 없이 극을 마무리한다.영화 버닝은 유통회사 아르바이트생 종수 유아인 가 어린 시절 같은 동네에서 자란 친구 혜미 전종서 를 만나고, 그녀에게 정체불명의 남자 벤 스티븐 연 을 소개받게 되면서 벌어지는 내용을 담는다.파인하우스필름 앞서 이 감독은 \"미스터리 그 자체\"라고 영화를 소개하기도 했다. 그는 또 \" 전작들과 다른 방식으로 관객에게 말을 거는 영화\"라며 \"미스터리 스릴러 장르로 카테고리를 만들 수도 있지만 거기에 머물지 않고 우리가 살고 있는 세상에 대한, 또는 이야기에 대한, 또는 영화 그 자체에 대한 미스터리로 확장할 수 있는 작품\"이라고 설명했다. 이 감독의 말마따나 영화는 미스터리 투성이다. 종수, 벤, 해미 모두 어떤 단어 하나로 규정할 수 없는 인물이다. 영화는 이들에 대해 친절하게 설명하지도 않는다. 관객들이 미루어 짐작하게 한다. 가령, 벤은 누구일까, 해미의 우물 이야기는 진짜일까?, 고양이는 실제로 있었을까?, 해미는 어디 있을까? 등 여러 질문이 꼬리에 꼬리를 문다. 모든 게 명쾌하지 않아 해석의 여지가 많은 작품이다. 친절한 영화를 좋아하는 관객 입장에선 불편하게 느끼는 지점이다. 극 초반 해미가 종수에게 던진 \"이제 진실을 말해봐\"라는 대사야 말로 관객이 영화에 묻고 싶은 질문이다. 이 감독은 \"우리가 사는 세상과 젊은 청춘에 대한 이야기를 하고 싶었다. 학교에서 학생들을 보면서 요즘 젊은이들이 바라보는 세상을 그리고 싶었는데 버닝이 그 결과물\"이라고 연출 의도를 전했다. 이어 \"젊은이들이 바라보는 요즘 세상을 생각해봤다\"며 \"요즘 젊은이들은 부모 세대보다 못 살고, 힘들어지는 최초의 세대라고 생각한다. 계속 발전했지만, 더 이상 좋아질 것 같지 않은 느낌이랄까. 젊은이들이 느끼는 무력감과 분노도 생각했고, 무엇 때문에 미래의 희망이 보이지 않을까를 생각하며 영화를 만들었다\"고 설명했다.영화 버닝은 유통회사 아르바이트생 종수 유아인 가 어린 시절 같은 동네에서 자란 친구 혜미 전종서 를 만나고, 그녀에게 정체불명의 남자 벤 스티븐 연 을 소개받게 되면서 벌어지는 내용을 담는다.파인하우스필름 결말에 대해선 \"일상의 스릴러와 긴장을 담았다\"며 \"누구나 명쾌하게 받아들일 결말은 아니지만, 커다란 충격이나 반전일 수 있다. 관객에게 질문을 던지는 결말이다. 젊은이들의 정서와 감각을 통해 소통하고 싶다\"고 말했다. 유아인은 우울하고, 복합적인 감정을 지닌 어려운 캐릭터를 매끄럽게 연기했다. 유아인은 \"표현에 대한 강박에서 벗어나 연기하고 싶었다\"며 \"있는 그대로, 사실적으로 연기하며 해석의 여지가 있는 캐릭터를 표현하는 게 숙제였다\"고 털어놨다. 신인 전종서는 연기 경험이 전무한 신인 치고 자연스러운 연기를 펼쳤다. 다소 어려운 캐릭터인 해미는 신비롭고 독특한 이미지의 전종서와 잘 어울렸다. 스티븐 연 역시 정체불명의 벤을 무난하게 표현했다. 버닝은 제 71회 칸 국제영화제 경쟁부문에 초청됐다. 이 감독은 2007년 밀양 전도연 여우주연상 수상 , 2010년 시 각본상 수상 에 이어 세 차례 연속 칸 영화제 경쟁 부문에 출사표를 던지게 됐다."
                },
                "sub_template_type": "normal1 HERE",
                "start_date": {
                    "millisecond": "",
                    "second": "",
                    "hour": "8",
                    "year": "2018",
                    "format": "",
                    "day": "17",
                    "minute": "57",
                    "month": "05"
                }
            },
            {
                "media": {
                    "url": "https://entertain.naver.com/movie/now/read?oid=109&aid=0003783436",
                    "caption": "",
                    "thumb": "",
                    "credit": ""
                },
                "number_info": "8:19",
                "background_image_url": "background_image_url HERE",
                "text": {
                    "video_url": "",
                    "sub_text3": "배우 윤찬영이 영화 생일 가제 에 캐스팅돼 설경구, 전도연과 연기 호흡을 맞춘다. 17일 취재 결과, 윤찬영은 생일에서 극중 부부를 연기하는 설경구와 전도연의 아들로 출연한다. ",
                    "sub_text2": "배우 윤찬영이 영화 생일 가제 에 캐스팅돼 설경구, 전도연과 연기 호흡을 맞춘다. 17일 취재 결과, 윤찬영은 생일에서 극중 부부를 연기하는 설경구와 전도연의 아들로 출연한다. 생일은 사고로 아들을 잃은 아빠와 엄마, 동생이 남겨진 사람들과 함께 서로의 아픈 마음을 보듬어가는 이야기를 그린 드라마 장르의 영화이다. 지난달 설경구와 전도연이 주연 배우로 출연이 확정돼 크랭크인했다는 배급사 측의 설명이다. 앞서 연출을 맡은 이종언 감독은 배급사를 통해 가슴에 묻는다는 말로는 사랑하는 사람을 잃은 이들의 슬픔이 다 표현될 수 없다고 생각한다며 너무 아프기에 들여다보기 어려워 우리가 놓치고 있었을지 모를, 그러다가 시간이 흘러 잊어버릴 수도 있는 이야기를 하고 싶었다고 말했다. ",
                    "sub_title": "[단독] '생일' 윤찬영, 설경구·전도연 아들役 캐스팅 확정",
                    "image_url": [
                        "https://ssl.pstatic.net/mimgnews/image/109/2018/05/17/0003783436_001_20180517082011804.jpg?type=w540"
                    ],
                    "sub_text": "배우 윤찬영이 영화 생일 가제 에 캐스팅돼 설경구, 전도연과 연기 호흡을 맞춘다. 17일 취재 결과, 윤찬영은 생일에서 극중 부부를 연기하는 설경구와 전도연의 아들로 출연한다. 생일은 사고로 아들을 잃은 아빠와 엄마, 동생이 남겨진 사람들과 함께 서로의 아픈 마음을 보듬어가는 이야기를 그린 드라마 장르의 영화이다. 지난달 설경구와 전도연이 주연 배우로 출연이 확정돼 크랭크인했다는 배급사 측의 설명이다. 두 배우가 같은 작품에 출연하는 것은 영화 나도 아내가 있었으면 좋겠다 감독 박흥식, 2001 이후 17년 만이다. 설경구는 아들이 세상을 떠나는 순간 가족의 곁을 지키지 못해 미안한 마음을 품고 살아가는 아버지 정일 역을 맡았다. 전도연은 돌아오지 못하는 아들에 대한 그리움 속에서도 마트에서 일하며 묵묵히 생계를 꾸려가는 어머니 순남을 연기한다. 앞서 연출을 맡은 이종언 감독은 배급사를 통해 가슴에 묻는다는 말로는 사랑하는 사람을 잃은 이들의 슬픔이 다 표현될 수 없다고 생각한다며 너무 아프기에 들여다보기 어려워 우리가 놓치고 있었을지 모를, 그러다가 시간이 흘러 잊어버릴 수도 있는 이야기를 하고 싶었다고 말했다. 생일은 이종언 감독의 생애 첫 장편 상업 영화 데뷔작이다."
                },
                "sub_template_type": "normal1 HERE",
                "start_date": {
                    "millisecond": "",
                    "second": "",
                    "hour": "8",
                    "year": "2018",
                    "format": "",
                    "day": "17",
                    "minute": "19",
                    "month": "05"
                }
            },
            {
                "media": {
                    "url": "https://entertain.naver.com/movie/now/read?oid=213&aid=0001036833",
                    "caption": "",
                    "thumb": "",
                    "credit": ""
                },
                "number_info": "4:54",
                "background_image_url": "background_image_url HERE",
                "text": {
                    "video_url": "",
                    "sub_text3": "한편 버닝은 초록물고기, 박하사탕, 오아시스, 밀양, 시의 이창동 감독이 메가폰을 잡았다. 이창동 감독은 버닝으로 밀양, 시에 이어 세 번째 칸 경쟁행 티켓을 거머쥐었다. ",
                    "sub_text2": "16일 오후 6시 현지시각 프랑스 칸 뤼미에르 대극장에서 제71회 칸국제영화제 경쟁부문 초청작 버닝 이창동 감독 의 프리미어 스크리닝이 열렸다. 이날 자리에는 이창동 감독과 배우 유아인, 스티븐 연, 전종서, 제작자 이준동 대표가 참석했다. 세 번의 칸 경쟁으로 제법 여유로운 이창동 감독과 달리 배우들은 긴장한 기색이 역력했다. 한편 버닝은 초록물고기, 박하사탕, 오아시스, 밀양, 시의 이창동 감독이 메가폰을 잡았다. 이창동 감독은 버닝으로 밀양, 시에 이어 세 번째 칸 경쟁행 티켓을 거머쥐었다. ",
                    "sub_title": "[칸@현장] \"5분 기립+환호\"…'버닝' 유아인x스티븐연의 눈물[종합]",
                    "image_url": [
                        "https://ssl.pstatic.net/mimgnews/image/213/2018/05/17/0001036833_001_20180517072212688.jpg?type=w540",
                        "https://mimgnews.pstatic.net/image/213/2018/05/17/0001036833_002_20180517072212847.jpg?type=w540"
                    ],
                    "sub_text": "버닝, 눈물로 칸을 적셨다. 16일 오후 6시 현지시각 프랑스 칸 뤼미에르 대극장에서 제71회 칸국제영화제 경쟁부문 초청작 버닝 이창동 감독 의 프리미어 스크리닝이 열렸다. 이날 자리에는 이창동 감독과 배우 유아인, 스티븐 연, 전종서, 제작자 이준동 대표가 참석했다. 세 번의 칸 경쟁으로 제법 여유로운 이창동 감독과 달리 배우들은 긴장한 기색이 역력했다. 레드카펫에는 톱모델 바바라 팔빈과 할리우드 배우 밀라 요보비치 등이 참석해 눈길을 끌기도 했다. 버닝은 각자 자기만의 방식으로 살아온 세 젊은이 종수 유아인 , 벤 스티븐 연 , 해미 전종서 사이에 벌어지는 미스터리 한 사건을 그린다. 무라카미 하루키의 단편소설 헛간을 태우다 1983 를 원작으로 한다. 상영 직후 약 5분간 기립박수와 환호가 터져나왔다. 특히 이창동 감독을 향한 박수가 뜨거웠다. 2층까지 가득 채운 2300명의 관객은 스크리닝에 감독의 얼굴이 뜨자 폭발적인 환호성을 지르며 존경심을 표했다. 감동적인 순간도 있었다. 이준동 대표가 최근 타계한 프랑스 영화 프로듀서이자 칸 영화제 자문위원인 고 故 피에르 르시앙의 사진과 Miss you가 적힌 배지를 카메라를 향해 내밀자 객석에서 다시 한 번 박수가 쏟아졌다. 유아인과 스티븐 연은 붉어진 눈빛으로 객석을 바라보며 손을 흔들었다. 신예 전종서는 제법 여유로운 표정으로 기립박수를 즐기는 모습이었다. 한편 버닝은 초록물고기, 박하사탕, 오아시스, 밀양, 시의 이창동 감독이 메가폰을 잡았다. 이창동 감독은 버닝으로 밀양, 시에 이어 세 번째 칸 경쟁행 티켓을 거머쥐었다. 앞서 이창동 감독은 밀양으로 여우주연상 전도연 을, 시로 각본상을 받았다. 국내 개봉은 5월 17일이다."
                },
                "sub_template_type": "normal1 HERE",
                "start_date": {
                    "millisecond": "",
                    "second": "",
                    "hour": "4",
                    "year": "2018",
                    "format": "",
                    "day": "17",
                    "minute": "54",
                    "month": "05"
                }
            },
            {
                "media": {
                    "url": "https://entertain.naver.com/movie/now/read?oid=213&aid=0001037388",
                    "caption": "",
                    "thumb": "",
                    "credit": ""
                },
                "number_info": "19:08",
                "background_image_url": "background_image_url HERE",
                "text": {
                    "video_url": "",
                    "sub_text3": "영화 버닝 이창동 감독 의 이창동 감독은 18일 오전 현지시각 프랑스 칸 마제스틱 비치호텔에서 진행된 한국 기자단과 라운드 인터뷰에서 영화에 대한 다양한 이야기를 전했다. 1\t1\t의외였다.\t의외/NNG+이/VCP+었/EP+다/EF+./SF\tVNP\t-\t- 이것이 어떤 의미인지 조금 더 생각해봐야 할 것 같다\"고 전했다. ",
                    "sub_text2": "영화 버닝 이창동 감독 의 이창동 감독은 18일 오전 현지시각 프랑스 칸 마제스틱 비치호텔에서 진행된 한국 기자단과 라운드 인터뷰에서 영화에 대한 다양한 이야기를 전했다. 밀양으로 칸영화제 여우주연상 전도연 , 시로 각본상을 받은 이창동 감독의 8년 만의 신작이다. 이창동 감독은 \"영화가 공개되는 시점에 외적인 논란으로 마음 고생하지 않았나\"라는 질문에 \"신경 안 썼다면 거짓말이겠지. 이에 대해 이창동 감독은 \"별점은 별점일 뿐이다. 1\t1\t의외였다.\t의외/NNG+이/VCP+었/EP+다/EF+./SF\tVNP\t-\t- 이것이 어떤 의미인지 조금 더 생각해봐야 할 것 같다\"고 전했다. ",
                    "sub_title": "[칸@인터뷰] '버닝' 이창동 \"영화 외적인 논란, 배우들에 미안했다\"",
                    "image_url": [
                        "https://mimgnews.pstatic.net/image/213/2018/05/18/0001037388_001_20180518190812879.jpg?type=w540"
                    ],
                    "sub_text": "이창동 감독이 영화 공개 전 외적인 논란에 대해 밝혔다. 영화 버닝 이창동 감독 의 이창동 감독은 18일 오전 현지시각 프랑스 칸 마제스틱 비치호텔에서 진행된 한국 기자단과 라운드 인터뷰에서 영화에 대한 다양한 이야기를 전했다. 제71회 칸국제영화제 경쟁 부문 초청작 버닝은 각자 자기만의 방식으로 살아온 세 젊은이 종수 유아인 , 벤 스티븐 연 , 해미 전종서 사이에 벌어지는 미스터리 한 사건을 그린 작품. 밀양으로 칸영화제 여우주연상 전도연 , 시로 각본상을 받은 이창동 감독의 8년 만의 신작이다. 이창동 감독은 \"영화가 공개되는 시점에 외적인 논란으로 마음 고생하지 않았나\"라는 질문에 \"신경 안 썼다면 거짓말이겠지. 한편으론 미안하긴 하다\"고 말했다. 논란과 별개로 버닝은 칸영화제 최고의 화제작으로 꼽히며 호평받고 있다. 이에 대해 이창동 감독은 \"별점은 별점일 뿐이다. 아무 의미 없다\"라면서도 \"반응이 생각했던 것 이상으로 뜨겁긴 하다. 의외였다. 1\t1\t의외였다.\t의외/NNG+이/VCP+었/EP+다/EF+./SF\tVNP\t-\t- 이것이 어떤 의미인지 조금 더 생각해봐야 할 것 같다\"고 전했다. 한편 제71회 칸영화제 폐막식은 19일 오후 7시 열린다. 올해 심사위원장은 영화 블루 재스민, 캐롤의 케이트 블란쳇이다."
                },
                "sub_template_type": "normal1 HERE",
                "start_date": {
                    "millisecond": "",
                    "second": "",
                    "hour": "19",
                    "year": "2018",
                    "format": "",
                    "day": "18",
                    "minute": "08",
                    "month": "05"
                }
            },
            {
                "media": {
                    "url": "https://entertain.naver.com/movie/now/read?oid=213&aid=0001037394",
                    "caption": "",
                    "thumb": "",
                    "credit": ""
                },
                "number_info": "19:55",
                "background_image_url": "background_image_url HERE",
                "text": {
                    "video_url": "",
                    "sub_text3": "제71회 칸국제영화제 경쟁 부문 초청작 버닝은 각자 자기만의 방식으로 살아온 세 젊은이 종수 유아인 , 벤 스티븐 연 , 해미 전종서 사이에 벌어지는 미스터리 한 사건을 그린 작품. 이어 전종서는 \"내 시간으로 통찰한 것을 내 연기를 통해 말하고 공감하고 싶다. ",
                    "sub_text2": "영화 버닝 이창동 감독 의 유아인은 18일 오전 현지시각 프랑스 칸 마제스틱 비치호텔에서 진행된 한국 기자단과 라운드 인터뷰에서 다양한 이야기를 솔직하게 밝혔다. 제71회 칸국제영화제 경쟁 부문 초청작 버닝은 각자 자기만의 방식으로 살아온 세 젊은이 종수 유아인 , 벤 스티븐 연 , 해미 전종서 사이에 벌어지는 미스터리 한 사건을 그린 작품. 전종서가 연기한 해미는 평범함과 자신만의 특별함을 동시에 갖춘 스물일곱 살 청춘이다. 이어 전종서는 \"내 시간으로 통찰한 것을 내 연기를 통해 말하고 공감하고 싶다. 단순히 어떤 척, 쇼를 하고 싶진 않다\"라며 \"제가 하고 싶은 얘기를 연기를 통화 할 수 있는 배우가 되고 싶다\"고 앞으로 포부를 밝혔다. ",
                    "sub_title": "[칸@인터뷰] '버닝' 전종서 \"직업의식 가져야겠다..쇼하는 배우는 싫어\"",
                    "image_url": [
                        "https://ssl.pstatic.net/mimgnews/image/213/2018/05/18/0001037394_001_20180518195512481.jpg?type=w540"
                    ],
                    "sub_text": "배우 전종서가 신인으로서 마음가짐을 전했다. 영화 버닝 이창동 감독 의 유아인은 18일 오전 현지시각 프랑스 칸 마제스틱 비치호텔에서 진행된 한국 기자단과 라운드 인터뷰에서 다양한 이야기를 솔직하게 밝혔다. 제71회 칸국제영화제 경쟁 부문 초청작 버닝은 각자 자기만의 방식으로 살아온 세 젊은이 종수 유아인 , 벤 스티븐 연 , 해미 전종서 사이에 벌어지는 미스터리 한 사건을 그린 작품. 밀양으로 칸영화제 여우주연상 전도연 , 시로 각본상을 받은 이창동 감독의 8년 만의 신작이다. 버닝은 지난 16일 칸영화제에서 첫 공개된 후 \"최고의 걸작\"이라는 평을 받으며 영화지 역대 평점을 기록, 황금종려상 유력 후보로 꼽히고 있다. 전종서가 연기한 해미는 평범함과 자신만의 특별함을 동시에 갖춘 스물일곱 살 청춘이다. 믿으면 실재한다고 생각하는 자유로운 영혼의 소유자. 누구의 눈에도 보이지 않는 고양이를 종수 유아인 에게 맡기고 아프리카로 여행을 떠난 뒤 의문의 남자 벤 스티븐 연 과 함께 돌아온다. 당돌함과 순수함을 오가는 신비로운 인물이다. 전종서는 \"잘 모르고 서툴렀다고 말씀드리기엔 힘들 것 같다. 직업의식을 가져야겠단 생각이 들었다\"고 운을 뗐다. 이어 전종서는 \"내 시간으로 통찰한 것을 내 연기를 통해 말하고 공감하고 싶다. 그 안에 제 진심을 항상 담고 싶다. 단순히 어떤 척, 쇼를 하고 싶진 않다\"라며 \"제가 하고 싶은 얘기를 연기를 통화 할 수 있는 배우가 되고 싶다\"고 앞으로 포부를 밝혔다. 한편 제71회 칸영화제 폐막식은 19일 오후 7시 열린다. 올해 심사위원장은 영화 블루 재스민, 캐롤의 케이트 블란쳇이다."
                },
                "sub_template_type": "normal1 HERE",
                "start_date": {
                    "millisecond": "",
                    "second": "",
                    "hour": "19",
                    "year": "2018",
                    "format": "",
                    "day": "18",
                    "minute": "55",
                    "month": "05"
                }
            },
            {
                "media": {
                    "url": "https://entertain.naver.com/movie/now/read?oid=112&aid=0003031616",
                    "caption": "",
                    "thumb": "",
                    "credit": ""
                },
                "number_info": "11:37",
                "background_image_url": "background_image_url HERE",
                "text": {
                    "video_url": "",
                    "sub_text3": "21명의 패널들이 모인 ICS 인터내셔널 시네필 소사이어티 는 경쟁과 비경쟁 부문에 오른 모든 영화 중 가장 높은 점수인 4.83점 5점 만점 을 매겼고, 스크린인터내셔널이 발행하는 스크린데일리는 버닝에 역대 최고 점수인 3.8점 4점 만점 을 부여했다. 최근 칸국제영화제의 수상이 평단의 평점과는 상관없이 심사위원단의 취향에 걸 맞는 영화들에 이루어져왔던 만큼, 가장 중요한 것은 심사위원들의 선택이다. ",
                    "sub_text2": "상영 직후 가장 먼저 평점을 발표한 미국 영화잡지 아이온시네마의 평점은 5점 만점 중 3.9점으로 매겨졌다. 이는 당시까지 가장 높은 점수를 받고 있었던 영화 콜드 워의 3.7점보다 0.2점 높은 수치다. 하지만 현재 아이온시네마가 발표한 버닝의 종합 점수는 3.7점이다. 첫 발표 당시 평에 참가한 심사위원 수가 적었기에 평균이 맞춰지며 다소 점수가 하락했다. 허나 이윽고 발표된 여러 유력 영화 매체들의 버닝에 대한 평은 이러한 점수 하락을 잊게 만들 정도의 성적이었다. 21명의 패널들이 모인 ICS 인터내셔널 시네필 소사이어티 는 경쟁과 비경쟁 부문에 오른 모든 영화 중 가장 높은 점수인 4.83점 5점 만점 을 매겼고, 스크린인터내셔널이 발행하는 스크린데일리는 버닝에 역대 최고 점수인 3.8점 4점 만점 을 부여했다. 외신들 역시 이러한 버닝의 높은 평점에 대해 주목하고 있는 상황이다.스크린데일리 홈페이지 캡처 하지만 이를 통해 수상 여부를 예측하기는 힘들다. 최근 칸국제영화제의 수상이 평단의 평점과는 상관없이 심사위원단의 취향에 걸 맞는 영화들에 이루어져왔던 만큼, 가장 중요한 것은 심사위원들의 선택이다. 여성 심사위원이 5명, 남성 심사위원이 4명으로 올해 칸국제영화제는 여성의 이야기가 중심이 된 영화가 주목받을 것으로 예측됐다. 또한 마이크 굿리지 마카오 국제영화제 집행위원은 칸에서 본 영화 중 최고였다며 최고의 연출력으로 최고의 연기를 끌어냈다고 평을 남기기도. ",
                    "sub_title": "[POP이슈]\"역대 최고 평점\"…'버닝' 韓 최초 황금종려상 꿈 뜨겁다",
                    "image_url": [
                        "https://mimgnews.pstatic.net/image/112/2018/05/18/201805181047127048248_20180518113142_01_20180518113710508.jpg?type=w540",
                        "https://ssl.pstatic.net/mimgnews/image/112/2018/05/18/201805181047127048248_20180518113430_01_20180518113710515.jpg?type=w540"
                    ],
                    "sub_text": "버닝이 칸의 분위기를 더욱 뜨겁게 만들고 있다. 제71회 칸국제영화제에서 전 세계에 첫 공개된 영화 버닝에 대한 언론과 평단의 반응이 그야말로 버닝 중이다. 전작 시 2010 이후 8년 만에 내놓는 이창동 감독의 신작이자, 한국영화로서는 유일하게 제71회 칸국제영화제 경쟁부문에 진출하며 큰 화제를 모았던 버닝. 지난 16일 오후 6시 30분 현지 시각 , 프랑스 칸 뤼미에르 대극장에서 공식 스크리닝 월드프리미어가 진행되고 난 후, 버닝에 대한 평단의 주목은 그야말로 찬사, 또 찬사였다. 상영 직후 가장 먼저 평점을 발표한 미국 영화잡지 아이온시네마의 평점은 5점 만점 중 3.9점으로 매겨졌다. 이는 당시까지 가장 높은 점수를 받고 있었던 영화 콜드 워의 3.7점보다 0.2점 높은 수치다. 하지만 현재 아이온시네마가 발표한 버닝의 종합 점수는 3.7점이다. 콜드 워와 동점인 상황. 첫 발표 당시 평에 참가한 심사위원 수가 적었기에 평균이 맞춰지며 다소 점수가 하락했다. 허나 이윽고 발표된 여러 유력 영화 매체들의 버닝에 대한 평은 이러한 점수 하락을 잊게 만들 정도의 성적이었다. 21명의 패널들이 모인 ICS 인터내셔널 시네필 소사이어티 는 경쟁과 비경쟁 부문에 오른 모든 영화 중 가장 높은 점수인 4.83점 5점 만점 을 매겼고, 스크린인터내셔널이 발행하는 스크린데일리는 버닝에 역대 최고 점수인 3.8점 4점 만점 을 부여했다. 이는 역대 칸국제영화제 소식지 중 사상 최고의 평점. 특히 스크린데일리의 평론가 10명 중 8명이 버닝에 만점을 선사했기에 더욱 의미가 크다. 외신들 역시 이러한 버닝의 높은 평점에 대해 주목하고 있는 상황이다.스크린데일리 홈페이지 캡처 하지만 이를 통해 수상 여부를 예측하기는 힘들다. 최근 칸국제영화제의 수상이 평단의 평점과는 상관없이 심사위원단의 취향에 걸 맞는 영화들에 이루어져왔던 만큼, 가장 중요한 것은 심사위원들의 선택이다. 올해 칸국제영화제의 심사위원진은 심사위원장을 맡은 배우 케이트 블란쳇을 필두로 중국 배우 장첸, 프랑스 배우 레아 세이두, 미국 배우 크리스틴 스튜어트, 에바 두버네이 감독, 로베르 구에디귀앙 감독, 드니 빌뇌브 감독, 안드레이 즈비아긴체프 감독, 싱어송라이터 카쟈 닌이 선정됐다. 여성 심사위원이 5명, 남성 심사위원이 4명으로 올해 칸국제영화제는 여성의 이야기가 중심이 된 영화가 주목받을 것으로 예측됐다. 이와 별개로 버닝에 대해 티에리 프리모 칸 집행위원장은 대단하고, 훌륭하며 강한 영화라며 순수한 미장센으로서 영화의 역할을 다하며 관객의 지적 능력을 기대하는 시적이고 미스터리한 영화라는 찬사를 남기기도 했다. 또한 마이크 굿리지 마카오 국제영화제 집행위원은 칸에서 본 영화 중 최고였다며 최고의 연출력으로 최고의 연기를 끌어냈다고 평을 남기기도. 확실하게 버닝의 뚜렷한 작품성이 칸국제영화제의 언론과 평단, 시네필들의 관심을 뜨겁게 받고 있음은 부정할 수 없다. 과연 버닝은 이러한 칸국제영화제의 뜨거운 분위기를 수상의 영광으로 이어갈 수 있을까. 한편, 이창동 감독은 2000년 박하사탕의 칸국제영화제 감독주간 초청을 시작으로 2003년 오아시스 비평가협회 특별초청작 , 2007년 밀양, 2010년 시를 통해 칸국제영화제를 찾았다. 2007년 밀양으로 전도연이 여우주연상을 수상했고, 시를 통해 각본상을 수상했다. 이에 버닝으로 한국 영화 최초로 황금종려상을 받을 수 있을지 기대를 한아름 안고 있다."
                },
                "sub_template_type": "normal1 HERE",
                "start_date": {
                    "millisecond": "",
                    "second": "",
                    "hour": "11",
                    "year": "2018",
                    "format": "",
                    "day": "18",
                    "minute": "37",
                    "month": "05"
                }
            },
            {
                "media": {
                    "url": "https://entertain.naver.com/movie/now/read?oid=001&aid=0010093432",
                    "caption": "",
                    "thumb": "",
                    "credit": ""
                },
                "number_info": "8:43",
                "background_image_url": "background_image_url HERE",
                "text": {
                    "video_url": "",
                    "sub_text3": "스크린데일리 역대 최고 평점르 필름 프랑세즈는 중간 수준버닝[CGV아트하우스 제공] 칸 조재영 기자 이창동 감독의 버닝이 칸영화제 소식지 스크린데일리에서 역대 최고 평점을 받았다. 버닝은 17일 현지시간 10개 매체가 참여한 스크린데일리 평점에서 3.8점을 기록했다. ",
                    "sub_text2": "스크린데일리 역대 최고 평점르 필름 프랑세즈는 중간 수준버닝[CGV아트하우스 제공] 칸 조재영 기자 이창동 감독의 버닝이 칸영화제 소식지 스크린데일리에서 역대 최고 평점을 받았다. 버닝은 17일 현지시간 10개 매체가 참여한 스크린데일리 평점에서 3.8점을 기록했다. 종전까지 이 소식지가 집계한 최고 평점은 2016년 토니 에드만 마렌 아데 감독 이 받은 3.7점이었다. 버닝은 스크린인터내셔널, LA타임스 등 무려 8개 매체로부터 4점 만점을 받았다. 이 소식지의 올해 최고 평점은 프랑스 스테판 브리제 감독의 앳 워 2.8점 이다. ",
                    "sub_title": "[칸영화제] '버닝' 영화제 소식지 평점 엇갈려",
                    "image_url": [
                        "https://ssl.pstatic.net/mimgnews/image/001/2018/05/18/AKR20180518037300005_01_i_20180518084403963.jpg?type=w540"
                    ],
                    "sub_text": "스크린데일리 역대 최고 평점르 필름 프랑세즈는 중간 수준버닝[CGV아트하우스 제공] 칸 조재영 기자 이창동 감독의 버닝이 칸영화제 소식지 스크린데일리에서 역대 최고 평점을 받았다. 버닝은 17일 현지시간 10개 매체가 참여한 스크린데일리 평점에서 3.8점을 기록했다. 종전까지 이 소식지가 집계한 최고 평점은 2016년 토니 에드만 마렌 아데 감독 이 받은 3.7점이었다. 버닝은 스크린인터내셔널, LA타임스 등 무려 8개 매체로부터 4점 만점을 받았다. 프랑스 일간지 리베라시옹, 방콕포스트 2개 매체만 3점을 매겼다. 그러나 칸영화제 양대 소식지 중 하나인 르 필름 프랑세즈가 집계한 평점은 2.2점으로 중간 정도 수준이었다. 이 소식지의 올해 최고 평점은 프랑스 스테판 브리제 감독의 앳 워 2.8점 이다. 영화제 소식지의 평점은 수상에 직접적인 영향을 미치지는 않는다. 2016년 비평가들 사이에서 최고점을 받은 토니 에드만은 수상자 명단에 들지 못했지만, 혹평받은 단지 세상의 끝 자비에 돌란 감독 은 감독상을 받기도 했다. 칸 현지에서는 평점과 별개로 버닝의 수상 가능성을 크게 점친다. 버닝이 어떤 상을 받을까에 관심이 쏠리는 분위기다. 이창동 감독은 밀양으로 2007년 전도연에게 여우주연상을 안겼고, 2010년 시로 각본상을 받았다."
                },
                "sub_template_type": "normal1 HERE",
                "start_date": {
                    "millisecond": "",
                    "second": "",
                    "hour": "8",
                    "year": "2018",
                    "format": "",
                    "day": "18",
                    "minute": "43",
                    "month": "05"
                }
            },
            {
                "media": {
                    "url": "https://entertain.naver.com/movie/now/read?oid=109&aid=0003784184",
                    "caption": "",
                    "thumb": "",
                    "credit": ""
                },
                "number_info": "7:27",
                "background_image_url": "background_image_url HERE",
                "text": {
                    "video_url": "",
                    "sub_text3": "버닝은 제71회 칸국제영화제 이하 칸영화제 공식 소식지인 스크린데일리에서 칸 역대 최고 평점인 3.8점을 받으며 수상 가능성에 또 다시 청신호를 켰다. 이창동 감독의 버닝은 스크린인터내셔널이 발행하는 칸영화제 공식 소식지 스크린데일리에서 역대 최고 점수인 3.8점 4점 만점 을 받았다. ",
                    "sub_text2": "버닝은 제71회 칸국제영화제 이하 칸영화제 공식 소식지인 스크린데일리에서 칸 역대 최고 평점인 3.8점을 받으며 수상 가능성에 또 다시 청신호를 켰다. 이창동 감독의 버닝은 스크린인터내셔널이 발행하는 칸영화제 공식 소식지 스크린데일리에서 역대 최고 점수인 3.8점 4점 만점 을 받았다. 또한 아이온시네마는 버닝에게 3.9점 5점 만점 이라는 높은 점수를 부여했고, 21명의 패널들이 모인 ICS 인터내셔널 시네필 소사이어티, International cinephile society 는 경쟁은 물론, 비경쟁 부문에 오른 모든 영화 중 가장 높은 점수인 4.83점 5점 만점 을 매겼다. 평점은 칸영화제의 분위기를 간접적으로 설명해줄 뿐, 수상은 케이트 블란쳇을 심사위원장으로 하는 경쟁 부문 심사위원들이 결정한다. 과연 이창동 감독이 3연속 경쟁 부문 진출과 함께 3연속 수상 낭보를 전할 수 있을지 관심이 집중된다. ",
                    "sub_title": "[71회 칸영화제] '버닝', 최고 평점 또 터졌다…'칸 역대 최고 신기록' 3.9점",
                    "image_url": [
                        "https://ssl.pstatic.net/mimgnews/image/109/2018/05/18/0003784184_001_20180518072811854.jpg?type=w540"
                    ],
                    "sub_text": "버닝이 칸영화제 역대 최고 평점을 기록했다. 버닝은 제71회 칸국제영화제 이하 칸영화제 공식 소식지인 스크린데일리에서 칸 역대 최고 평점인 3.8점을 받으며 수상 가능성에 또 다시 청신호를 켰다. 이창동 감독의 버닝은 스크린인터내셔널이 발행하는 칸영화제 공식 소식지 스크린데일리에서 역대 최고 점수인 3.8점 4점 만점 을 받았다. 이는 역대 칸영화제 소식지 사상 최고 평점이다. 지금까지는 2016년 독일의 마렌 아데 감독의 토니 에드만이 3.7점으로 최고점을 달렸다. 그리고 버닝이 언론과 평단의 극찬과 함께 2년 만에 3.8점으로 이를 경신했다. 특히 스크린데일리에서는 평론가 10명 중 8명이 버닝에게 만점을 선사했다. 또한 아이온시네마는 버닝에게 3.9점 5점 만점 이라는 높은 점수를 부여했고, 21명의 패널들이 모인 ICS 인터내셔널 시네필 소사이어티, International cinephile society 는 경쟁은 물론, 비경쟁 부문에 오른 모든 영화 중 가장 높은 점수인 4.83점 5점 만점 을 매겼다. 평론가들과 언론의 평점은 지극히 주관적인 숫자로, 칸의 수상과 결코 직결되지 않는다. 평점은 칸영화제의 분위기를 간접적으로 설명해줄 뿐, 수상은 케이트 블란쳇을 심사위원장으로 하는 경쟁 부문 심사위원들이 결정한다. 그러나 버닝이 연이어 최고점을 경신한다는 것은 매우 신호로, 현재 칸영화제 분위기를 읽을 수 있는 아주 좋은 지표다. 특히 버닝이 만장일치로 높은 평점을 기록하고 있고, 해외 평론가들에게 극찬을 받고 있다는 점도 버닝에 대한 기대를 높이는 요소 중 하나다. 이창동 감독은 밀양으로 전도연에게 여우주연상을 안겼고, 시로는 각본상을 수상했다. 그리고 마침내 8년 만에 돌아온 칸영화제, 신작 버닝이 또다시 칸의 심장을 버닝하고 있다. 과연 이창동 감독이 3연속 경쟁 부문 진출과 함께 3연속 수상 낭보를 전할 수 있을지 관심이 집중된다."
                },
                "sub_template_type": "normal1 HERE",
                "start_date": {
                    "millisecond": "",
                    "second": "",
                    "hour": "7",
                    "year": "2018",
                    "format": "",
                    "day": "18",
                    "minute": "27",
                    "month": "05"
                }
            },
            {
                "media": {
                    "url": "https://entertain.naver.com/movie/now/read?oid=109&aid=0003785019",
                    "caption": "",
                    "thumb": "",
                    "credit": ""
                },
                "number_info": "11:31",
                "background_image_url": "background_image_url HERE",
                "text": {
                    "video_url": "",
                    "sub_text3": "수상에 앞서 칸영화제 현지 분위기의 지표가 되는 스크린데일리가 무려 역대 최고점인 3.8점을 부여한 것은 버닝에 대한 현지 평가가 남다르다는 방증이다. 특히 버닝은 칸영화제가 오랫동안 기다려온 칸이 사랑하는 거장 이창동 감독의 신작이다. ",
                    "sub_text2": "이창동 감독의 버닝은 한국 영화 최초로 경쟁 부문에 진출, 쟁쟁한 작품들과 수상을 두고 경합을 펼치고 있다. 버닝은 칸영화제 공식 소식지인 스크린데일리에서 칸 역대 최고 평점인 3.8점 4점 만점 을 받았다. 수상에 앞서 칸영화제 현지 분위기의 지표가 되는 스크린데일리가 무려 역대 최고점인 3.8점을 부여한 것은 버닝에 대한 현지 평가가 남다르다는 방증이다. 아이온시네마는 버닝에게 3.9점 5점 만점 이라는 높은 점수를 부여했고, 21명의 패널들이 모인 ICS 인터내셔널 시네필 소사이어티, International cinephile society 는 경쟁은 물론, 비경쟁 부문에 오른 모든 영화 중 가장 높은 점수인 4.83점 5점 만점 을 매겼다. 물론 칸 현지에서의 높은 평점이 수상과 직결되지는 않는다. 경쟁 부문의 수상 결과는 케이트 블란쳇을 필두로 크리스틴 스튜어트, 레아 세이두, 장첸, 안드레이 즈비아긴체프 감독, 드니 빌뇌브 감독 등 심사위원들이 결정하는 것. 최근 칸은 현지 평점과 상관없이 철저히 심사위원단의 취향에 맞는 영화에 상을 안겼다. 특히 버닝은 칸영화제가 오랫동안 기다려온 칸이 사랑하는 거장 이창동 감독의 신작이다. 이창동 감독이 칸영화제에 부름을 받은 것은 이번이 5번째로, 경쟁 부문 진출은 3번째다. 이창동 감독은 칸영화제에 공식 초청되면 빈손으로 돌아온 적이 단 한 번도 없었다. ",
                    "sub_title": "[Oh!쎈 초점] \"여우주연상→각본상→?\"…'버닝' 이창동, 칸 3연속 수상하나",
                    "image_url": [
                        "https://ssl.pstatic.net/mimgnews/image/109/2018/05/19/0003785019_001_20180519113112779.jpg?type=w540",
                        "https://mimgnews.pstatic.net/image/109/2018/05/19/0003785019_002_20180519113112790.jpg?type=w540"
                    ],
                    "sub_text": "이창동 감독은 칸영화제 3연속 수상에 성공할까. 19일 현지시각 오후 칸 뤼미에르 대극장에서는 제71회 칸국제영화제 이하 칸영화제 의 폐막식이 열린다. 12일간 전 세계를 뜨겁게 달궜던 영화 축제를 마무리하는 이날 폐막식에서는 황금종려상을 비롯해 남녀 주연상 등 영광의 주인공들이 가려진다. 현재 무엇보다 관심을 모으는 것은 버닝 이창동 감독 의 수상 여부다. 이창동 감독의 버닝은 한국 영화 최초로 경쟁 부문에 진출, 쟁쟁한 작품들과 수상을 두고 경합을 펼치고 있다. 버닝은 지난 16일 공개 이후 언론의 평단의 극찬을 싹쓸이하고 있어 수상 가능성에 청신호를 켠 상황이다. 특히 역대급 평점은 버닝의 수상에 대한 기대를 더욱 높이고 있다. 버닝은 칸영화제 공식 소식지인 스크린데일리에서 칸 역대 최고 평점인 3.8점 4점 만점 을 받았다. 스크린데일리는 프랑스, 독일, 중국 등 전 세계 각국의 10개 영화 매체 평론가들의 평가를 취합해 별점을 공개하는 칸영화제 공식 소식지. 수상에 앞서 칸영화제 현지 분위기의 지표가 되는 스크린데일리가 무려 역대 최고점인 3.8점을 부여한 것은 버닝에 대한 현지 평가가 남다르다는 방증이다. 또한 10개 매체 중 8개 매체의 평론가들이 버닝에 만점인 별 네 개를 부여했고, 나머지 두 개 매체는 별 세 개를 매긴 것 역시 고무적이다. 뿐만 아니라 버닝은 매일 발표되는 평점에서도 연이어 신기록을 수립했다. 아이온시네마는 버닝에게 3.9점 5점 만점 이라는 높은 점수를 부여했고, 21명의 패널들이 모인 ICS 인터내셔널 시네필 소사이어티, International cinephile society 는 경쟁은 물론, 비경쟁 부문에 오른 모든 영화 중 가장 높은 점수인 4.83점 5점 만점 을 매겼다. 물론 칸 현지에서의 높은 평점이 수상과 직결되지는 않는다. 경쟁 부문의 수상 결과는 케이트 블란쳇을 필두로 크리스틴 스튜어트, 레아 세이두, 장첸, 안드레이 즈비아긴체프 감독, 드니 빌뇌브 감독 등 심사위원들이 결정하는 것. 최근 칸은 현지 평점과 상관없이 철저히 심사위원단의 취향에 맞는 영화에 상을 안겼다. 또한 언론과 평단에서는 혹평을 받았지만, 황금종려상 등 수상에 성공한 경우도 적지 않았다. 특히 올해 칸은 여성 감독과 여성 영화인 등 여성 연대에 주목하고 있다. 그러나 연이어 역대급 평점을 기록하는 것은 분명히 버닝에도 좋은 시그널이다. 특히 버닝은 칸영화제가 오랫동안 기다려온 칸이 사랑하는 거장 이창동 감독의 신작이다. 이창동 감독이 칸영화제에 부름을 받은 것은 이번이 5번째로, 경쟁 부문 진출은 3번째다. 이창동 감독은 칸영화제에 공식 초청되면 빈손으로 돌아온 적이 단 한 번도 없었다. 경쟁 부문에 초청만 되면 수상에 성공했던 유쾌한 법칙이다. 지난 2007년 밀양이 칸영화제 경쟁 부문에 처음으로 초청됐을 때는 주연을 맡은 전도연이 여우주연상을 수상하며 칸의 여왕이라는 수식어의 주인공이 됐다. 3년 후인 2010년 제63회 칸영화제에서 시로 경쟁 부문에 올랐을 때는 이창동 감독 본인이 각본상의 영광을 차지했다. 그리고 8년 만에 신작 버닝으로 또다시 칸의 문을 두드리게 됐다. 게다가 버닝은 칸 현지에서 뜨거운 극찬을 받고 있다. 수상에 대한 기대가 높아질 수밖에 없는 이유다. 현재 칸영화제는 폐막만을 앞두고 있다. 19일 현지시각 오후 7시 폐막식이 진행되는 가운데, 황금종려상 등 수상자들에게는 폐막식 약 4시간 전인 오후 3시께 수상 가능성이 귀띔되는 것으로 알려졌다. 과연 이창동 감독은 올해도 칸 심사위원의 마음을 사로잡았을까."
                },
                "sub_template_type": "normal1 HERE",
                "start_date": {
                    "millisecond": "",
                    "second": "",
                    "hour": "11",
                    "year": "2018",
                    "format": "",
                    "day": "19",
                    "minute": "31",
                    "month": "05"
                }
            },
            {
                "media": {
                    "url": "https://entertain.naver.com/movie/now/read?oid=213&aid=0001037442",
                    "caption": "",
                    "thumb": "",
                    "credit": ""
                },
                "number_info": "8:33",
                "background_image_url": "background_image_url HERE",
                "text": {
                    "video_url": "",
                    "sub_text3": "마침 시기가 맞아서 한국에서 이창동 감독님을 뵀죠.\" 스티븐 연은 버닝에서 하품마저 섬뜩한, 종잡을 수 없는 캐릭터를 완벽히 소화했다. 유아인에게 고마운 것은 외국인인 나를 한국 사회에서 외국인이 아니고 자연스럽게 받아들여준 것이 고마워요.\" 한편 제71회 칸영화제 폐막식은 19일 오후 7시 열린다. ",
                    "sub_text2": "제71회 칸국제영화제 경쟁 부문 초청작 버닝은 각자 자기만의 방식으로 살아온 세 젊은이 종수 유아인 , 벤 스티븐 연 , 해미 전종서 사이에 벌어지는 미스터리 한 사건을 그린 작품. 워킹데드, 옥자 등을 통해 할리우드와 충무로를 오가며 활동 범위를 넓히고 있는 스티븐 연은 비밀스러운 남자 벤을 연기했다. 마침 시기가 맞아서 한국에서 이창동 감독님을 뵀죠.\" 스티븐 연은 버닝에서 하품마저 섬뜩한, 종잡을 수 없는 캐릭터를 완벽히 소화했다. 특히 유아인과 열연한 엔딩은 이 영화에서 가장 강렬한 순간. 유아인에게 고마운 것은 외국인인 나를 한국 사회에서 외국인이 아니고 자연스럽게 받아들여준 것이 고마워요.\" 한편 제71회 칸영화제 폐막식은 19일 오후 7시 열린다. ",
                    "sub_title": "[칸@인터뷰] '버닝' 스티븐 연 \"봉준호 감독 새벽3시에 캐스팅 전화\" ③",
                    "image_url": [
                        "https://mimgnews.pstatic.net/image/213/2018/05/19/0001037442_001_20180519083312450.jpg?type=w540"
                    ],
                    "sub_text": "배우 스티븐 연이 캐스팅 비하인드를 전했다. 제71회 칸국제영화제 경쟁 부문 초청작 버닝은 각자 자기만의 방식으로 살아온 세 젊은이 종수 유아인 , 벤 스티븐 연 , 해미 전종서 사이에 벌어지는 미스터리 한 사건을 그린 작품. 밀양으로 칸영화제 여우주연상 전도연 , 시로 각본상을 받은 이창동 감독의 8년 만의 신작이다. 워킹데드, 옥자 등을 통해 할리우드와 충무로를 오가며 활동 범위를 넓히고 있는 스티븐 연은 비밀스러운 남자 벤을 연기했다. 완벽한 삶을 사는 것 같지만 속을 알 수 없는 인물. \" 옥자로 호흡을 맞춘 봉준호 감독께서 지금 전화 줘 Call me right now 라고 문자를 보냈어요. 그때가 새벽 3시. 전 런던에 있다가 한국에 갈 예정이었거든요. 마침 시기가 맞아서 한국에서 이창동 감독님을 뵀죠.\" 스티븐 연은 버닝에서 하품마저 섬뜩한, 종잡을 수 없는 캐릭터를 완벽히 소화했다. 특히 유아인과 열연한 엔딩은 이 영화에서 가장 강렬한 순간. \"유아인은 정말 똑똑하고 훌륭하고 용기 있는 사람이에요. 처음부터 편안하게 맞았어요. 모든 사람과 잘 맞는 건 아니잖아요. 그런 면에서도 탁월한 캐스팅이었던 것 같아요. 유아인에게 고마운 것은 외국인인 나를 한국 사회에서 외국인이 아니고 자연스럽게 받아들여준 것이 고마워요.\" 한편 제71회 칸영화제 폐막식은 19일 오후 7시 열린다. 올해 심사위원장은 영화 블루 재스민, 캐롤의 케이트 블란쳇이다."
                },
                "sub_template_type": "normal1 HERE",
                "start_date": {
                    "millisecond": "",
                    "second": "",
                    "hour": "8",
                    "year": "2018",
                    "format": "",
                    "day": "19",
                    "minute": "33",
                    "month": "05"
                }
            },
            {
                "media": {
                    "url": "https://entertain.naver.com/movie/now/read?oid=213&aid=0001037436",
                    "caption": "",
                    "thumb": "",
                    "credit": ""
                },
                "number_info": "7:46",
                "background_image_url": "background_image_url HERE",
                "text": {
                    "video_url": "",
                    "sub_text3": "사람도, 스태프도 많았고. 신고식을 호되게 치렀어요.\" 버닝으로 세상에 처음 얼굴을 알린 전종서는 스스로에 대해 \"변화무쌍한 사람\"이라고 말했다. ",
                    "sub_text2": "배우 전종서는 영화 버닝 이창동 감독 으로 겪는 모든 일이 생애 첫 경험이다. 기자간담회 무대에 오르는 것도, 취재진 플래시 세례를 받는 것도, 칸 레드카펫을 밟는 것도 모두 처음. 전종서는 데뷔작으로 칸영화제라는 큰 무대에 선 것에 대해 \"공기도 좋고 모든 게 좋은데, 얼떨떨해요\"라며 웃었다. 촬영 자체가 처음이었던 그에게 현장 스태프, 자신을 향해 다가오는 카메라 모두 생경했다. 사람도, 스태프도 많았고. 신고식을 호되게 치렀어요.\" 버닝으로 세상에 처음 얼굴을 알린 전종서는 스스로에 대해 \"변화무쌍한 사람\"이라고 말했다. \"개방적인 부분도 있지만 엄청나게 보수적인 부분도 있어요. 이 옷이 좋다가도 싫어지고, 방구조도 바꿔버려요. 학습에 대한 강박이 있거든요.\" 그런 전종서에게 어떤 배우가 되고 싶냐고 물었더니 아직 스스로 배우라 말하기 민망하다며 웃는다. \"직업의식을 가져야겠단 생각을 많이 해요. ",
                    "sub_title": "[칸@인터뷰] '버닝' 전종서 \"직업의식 가져야죠..서툴단 핑계 안돼\" ③",
                    "image_url": [
                        "https://ssl.pstatic.net/mimgnews/image/213/2018/05/19/0001037436_001_20180519080013186.jpg?type=w540",
                        "https://mimgnews.pstatic.net/image/213/2018/05/19/0001037436_002_20180519080013196.jpg?type=w540"
                    ],
                    "sub_text": "배우 전종서는 영화 버닝 이창동 감독 으로 겪는 모든 일이 생애 첫 경험이다. 기자간담회 무대에 오르는 것도, 취재진 플래시 세례를 받는 것도, 칸 레드카펫을 밟는 것도 모두 처음. 제71회 칸국제영화제 경쟁 부문 초청작 버닝은 각자 자기만의 방식으로 살아온 세 젊은이 종수 유아인 , 벤 스티븐 연 , 해미 전종서 사이에 벌어지는 미스터리 한 사건을 그린 작품. 밀양으로 칸영화제 여우주연상 전도연 , 시로 각본상을 받은 이창동 감독의 8년 만의 신작이다. 전종서는 데뷔작으로 칸영화제라는 큰 무대에 선 것에 대해 \"공기도 좋고 모든 게 좋은데, 얼떨떨해요\"라며 웃었다. 그는 버닝에서 가장 힘들었던 장면으로 노출, 베드신도 아닌 오프닝을 꼽았다. 촬영 자체가 처음이었던 그에게 현장 스태프, 자신을 향해 다가오는 카메라 모두 생경했다. \"첫 촬영날 오프닝을 찍었어요. 카메라가 너무 크게 다가왔고, 약속 안 된 사람들이 지나가고, 너무 정신 없고. 사람도, 스태프도 많았고. 엄청 여러 번 찍었는데도 결국 오케이 OK 가 안 떨어져서 다음날까지 찍었어요. 첫날이 고비였죠. 신고식을 호되게 치렀어요.\" 버닝으로 세상에 처음 얼굴을 알린 전종서는 스스로에 대해 \"변화무쌍한 사람\"이라고 말했다. \"개방적인 부분도 있지만 엄청나게 보수적인 부분도 있어요. 어제 이렇게 생각해놓고 오늘은 또 다른 생각을 해요. 이 옷이 좋다가도 싫어지고, 방구조도 바꿔버려요. 변화하는 걸 좋아해요. 매일 느끼고 변화하고 깨닫고 있어요. 저는 그런 것들을 놓치지 않으려 해요. 학습에 대한 강박이 있거든요.\" 그런 전종서에게 어떤 배우가 되고 싶냐고 물었더니 아직 스스로 배우라 말하기 민망하다며 웃는다. \"직업의식을 가져야겠단 생각을 많이 해요. 잘 모르고 서툴었다고만 말씀드리면 안 될 것 같아요. 스스로 뿌리를 내리고 있어야죠. 배우라는 단어를 쓰는 것도 부끄러워요. 웃음 제 시각으로 통찰한 것들을 연기를 통해 보여드리고 싶어요."
                },
                "sub_template_type": "normal1 HERE",
                "start_date": {
                    "millisecond": "",
                    "second": "",
                    "hour": "7",
                    "year": "2018",
                    "format": "",
                    "day": "19",
                    "minute": "46",
                    "month": "05"
                }
            },
            {
                "media": {
                    "url": "https://entertain.naver.com/movie/now/read?oid=213&aid=0001037433",
                    "caption": "",
                    "thumb": "",
                    "credit": ""
                },
                "number_info": "7:18",
                "background_image_url": "background_image_url HERE",
                "text": {
                    "video_url": "",
                    "sub_text3": "실제로 이미 자국에서 개봉한 올드보이가 칸영화제 경쟁에 초청된 데에는 당시 심사위원장이 쿠엔틴 타란티노의 입김이 크게 작용했다는 사례는 유명하다. 한 영화관계자는 \"오히려 스크린데일리의 최고 평점이 버닝에겐 위험한 지표일 수 있다. ",
                    "sub_text2": "한국영화계는 경쟁부문에 초청된 버닝 이창동 감독 의 황금종려상 수상 여부로 기대와 관심이 뜨겁게 달아올랐다. 19일 오후 7시 프랑스 칸 뤼미에르 대극장에서 칸영화제 폐막식이 열린다. 올해 한국영화로는 이창동 감독의 버닝이 유일하게 경쟁 부문에 올랐다. 버닝은 지난 16일 공개 직후 \"최고의 걸작\"이라는 평을 받으며 현지 분위기를 달궜다. 역대 스크린데일리 최고 평점이다. 버닝 이전 스크린데일리 최고점이었던 토니 에드만은 그해 칸영화제 무관에 그쳤다. 수상 여부를 가늠할 지표로 판단하기엔 칸영화제는 매회 바뀌는 심사위원의 영향이 절대적으로 작용한다. 실제로 이미 자국에서 개봉한 올드보이가 칸영화제 경쟁에 초청된 데에는 당시 심사위원장이 쿠엔틴 타란티노의 입김이 크게 작용했다는 사례는 유명하다. 한 영화관계자는 \"오히려 스크린데일리의 최고 평점이 버닝에겐 위험한 지표일 수 있다. 올해 칸영화제 심사위원장은 영화 블루 재스민, 캐롤의 호주 출신 배우 케이트 블란쳇이 맡았다. ",
                    "sub_title": "[칸@이슈] \"최고평점 득or독\"…'버닝' 韓최초 황금종려 품을까",
                    "image_url": [
                        "https://mimgnews.pstatic.net/image/213/2018/05/19/0001037433_001_20180519071813313.jpg?type=w540",
                        "https://ssl.pstatic.net/mimgnews/image/213/2018/05/19/0001037433_002_20180519071813598.jpg?type=w540"
                    ],
                    "sub_text": "제71회 칸국제영화제가 오늘 19일 폐막한다. 한국영화계는 경쟁부문에 초청된 버닝 이창동 감독 의 황금종려상 수상 여부로 기대와 관심이 뜨겁게 달아올랐다. 19일 오후 7시 프랑스 칸 뤼미에르 대극장에서 칸영화제 폐막식이 열린다. 이날 폐막식에서는 21편 경쟁부문 초청작의 시상식이 열린다. 올해 한국영화로는 이창동 감독의 버닝이 유일하게 경쟁 부문에 올랐다. 밀양 07 으로 전도연에게 여우주연상을, 시 10 로 각본상을 받은 이창동 감독이기에 그 어느 해보다 기대가 높다. 특히 버닝이 한국영화 최초로 최고 영예상인 황금종려상을 받을 수 있을지 이목이 쏠리고 있다. 버닝은 지난 16일 공개 직후 \"최고의 걸작\"이라는 평을 받으며 현지 분위기를 달궜다. 스크린데일리에서는 4점 만점에 3.8점을 기록했다. 역대 스크린데일리 최고 평점이다. 버닝은 10개 매체 가운데 8개 매체에서 만점을 받았다. 하지만 영화지 평점이 수상에 영향을 끼치는 것은 아니다. 버닝 이전 스크린데일리 최고점이었던 토니 에드만은 그해 칸영화제 무관에 그쳤다. 수상 여부를 가늠할 지표로 판단하기엔 칸영화제는 매회 바뀌는 심사위원의 영향이 절대적으로 작용한다. 그 중에서도 심사위원장의 입맛이 수상 결과에 큰 변수로 작용한다. 실제로 이미 자국에서 개봉한 올드보이가 칸영화제 경쟁에 초청된 데에는 당시 심사위원장이 쿠엔틴 타란티노의 입김이 크게 작용했다는 사례는 유명하다. 올드보이의 심사위원대상에도 타란티노가 결정적인 역할을 했던 바. 한 영화관계자는 \"오히려 스크린데일리의 최고 평점이 버닝에겐 위험한 지표일 수 있다. 심사위원으로서 영화지와는 차별화된 결정을 내리게 하는 자극제 역할을 할 수도 있기 때문\"이라고 말했다. 올해 칸영화제 심사위원장은 영화 블루 재스민, 캐롤의 호주 출신 배우 케이트 블란쳇이 맡았다. 할리우드 배우 크리스틴 스튜어트, 프랑스 출신 배우 레아 세이두, 시간의 주름 아바 두버네이 감독, 브룬디 출신 싱어송라이터 카자 닌, 리바이던의 안드레이 즈비아진세프 감독, 그을린 사랑의 드니 빌뇌브 감독, 프랑스 출신 로베르 게디기앙 감독, 대만 배우 장첸이 심사위원으로 선정됐다."
                },
                "sub_template_type": "normal1 HERE",
                "start_date": {
                    "millisecond": "",
                    "second": "",
                    "hour": "7",
                    "year": "2018",
                    "format": "",
                    "day": "19",
                    "minute": "18",
                    "month": "05"
                }
            },
            {
                "media": {
                    "url": "https://entertain.naver.com/movie/now/read?oid=108&aid=0002700922",
                    "caption": "",
                    "thumb": "",
                    "credit": ""
                },
                "number_info": "7:00",
                "background_image_url": "background_image_url HERE",
                "text": {
                    "video_url": "",
                    "sub_text3": "이미 프랑스, 독일, 영국, 미국, 중국, 태국, 러시아 등 10개국 매체 평론가의 평점을 공개하는 칸국제영화제 소식지 스크린 데일리 집계에서 버닝은 4점 만점에 무려 3.8점을 얻어 최고점을 기록했다. 물론 매체의 평점이 황금종려상과 직결되는 것은 아니다. ",
                    "sub_text2": "제 71회 칸국제영화제 경쟁부문 초청작 버닝의 공식 레드카펫 행사에 나선 이준동 대표 사진 맨 왼쪽 와 스티븐 연, 전종서, 유아인, 이창동 감독 / 제71회 칸국제영화제가 19일 폐막한다. 한국영화로는 유일하게 경쟁부문에 초청된 이창동 감독의 버닝이 황금종려상의 영예를 탈 것인지 관심이 쏠린다. 경쟁부문 초청작 중 심사위원단이 선정한 최고의 작품에게 황금종려상이 주어진다. 밀양 2007 으로 전도연이 여우주연상을 수상했으며 시 2010 로 각본상을 수상한 이창동 감독은 칸이 사랑하는 한국의 대표 감독이다. 이미 프랑스, 독일, 영국, 미국, 중국, 태국, 러시아 등 10개국 매체 평론가의 평점을 공개하는 칸국제영화제 소식지 스크린 데일리 집계에서 버닝은 4점 만점에 무려 3.8점을 얻어 최고점을 기록했다. 버닝은 10개 매체 중 8곳으로부터 만점에 해당하는 별 4개를, 나머지 2곳에서 별 3개를 받았다. 이는 스크린 데일리가 칸 경쟁부문 초청작 평점을 매기기 시작한 이래 나온 최고의 점수다. 물론 매체의 평점이 황금종려상과 직결되는 것은 아니다. 일례로 유럽 매체들이 성향을 대변하는 르필름프랑세즈 평점에서는 버닝이 중위권이다. 버닝 이전 스크린 데일리 평점에서 최고를 기록했던 작품은 2016년 초청작인 토니 에드만으로 3.7점을 기록했다. ",
                    "sub_title": "71회 칸영화제 오늘(19일) 폐막..'버닝', 韓최초 황금종려상 탈까",
                    "image_url": [
                        "https://mimgnews.pstatic.net/image/108/2018/05/19/0002700922_001_20180601131944789.jpg?type=w540",
                        "https://ssl.pstatic.net/mimgnews/image/108/2018/05/19/0002700922_002_20180601131944841.jpg?type=w540",
                        "https://mimgnews.pstatic.net/image/108/2018/05/19/0002700922_003_20180601131945009.jpg?type=w540"
                    ],
                    "sub_text": "제 71회 칸국제영화제 경쟁부문 초청작 버닝의 공식 레드카펫 행사에 나선 이준동 대표 사진 맨 왼쪽 와 스티븐 연, 전종서, 유아인, 이창동 감독 / 제71회 칸국제영화제가 19일 폐막한다. 한국영화로는 유일하게 경쟁부문에 초청된 이창동 감독의 버닝이 황금종려상의 영예를 탈 것인지 관심이 쏠린다. 19일 오후 프랑스 칸의 뤼미에르 대극장에서 제71회 칸국제영화제 폐막식이 열린다. 지난 12일간의 여정을 마무리하는 이날 폐막식에는 21편의 경쟁부문 초청작에 대한 시상식도 함께 열린다. 역시 가장 큰 관심은 최고 영예인 황금종려상의 향방이다. 경쟁부문 초청작 중 심사위원단이 선정한 최고의 작품에게 황금종려상이 주어진다. 유일한 한국영화 초청작은 이창동 감독의 버닝. 무라카미 하루키의 단편 헛간을 태우다가 원작으로 유아인, 스티븐 연, 전종서가 전혀 다른 삶의 방식을 지닌 세 젊은이로 출연해 열연을 펼쳤다. 밀양 2007 으로 전도연이 여우주연상을 수상했으며 시 2010 로 각본상을 수상한 이창동 감독은 칸이 사랑하는 한국의 대표 감독이다. 버닝이 황금종려상을 수상한다면 한국 영화 역사상 최초다.사진영화 버닝 해외 포스터 공연한 기대만은 아니다. 황금종려상 수상의 기대가 일 만큼 칸 현지의 분위기가 뜨겁다. 이미 프랑스, 독일, 영국, 미국, 중국, 태국, 러시아 등 10개국 매체 평론가의 평점을 공개하는 칸국제영화제 소식지 스크린 데일리 집계에서 버닝은 4점 만점에 무려 3.8점을 얻어 최고점을 기록했다. 2위는 3.2점을 기록한 고레에다 히로카즈 감독의 만비키 가족이다. 버닝은 10개 매체 중 8곳으로부터 만점에 해당하는 별 4개를, 나머지 2곳에서 별 3개를 받았다. 이는 스크린 데일리가 칸 경쟁부문 초청작 평점을 매기기 시작한 이래 나온 최고의 점수다. 물론 매체의 평점이 황금종려상과 직결되는 것은 아니다. 매체마다 작품에 대판 평점도 다르다. 일례로 유럽 매체들이 성향을 대변하는 르필름프랑세즈 평점에서는 버닝이 중위권이다. 단적인 예도 있었다. 버닝 이전 스크린 데일리 평점에서 최고를 기록했던 작품은 2016년 초청작인 토니 에드만으로 3.7점을 기록했다. 그러나 당시 토니 에드만은 무관에 그쳤고, 평점 2.4였던 켄 로치 감독의 나, 다니엘 블레이크가 황금종려상을 수상했다. 실제로 일각에서는 신기록까지 세운 평점이 도움이 되기는커녕 독이 될 수 있다는 분석도 나온다. 심사위원들이 일반 평론가들과는 차별화된 결정을 내리도록 자극할 수 있기 때문이다.제71회 칸국제영화제 경쟁부문 심사위원단과 영화제 인사들. 사진 왼쪽부터 캐나다 출신인 드니 빌뇌브 감독, 칸영화제 티에리 프레모 집행위원장, 러시아 안드레이 즈기야긴체프 감독, 프랑스 배우 레아 세이두, 프랑스 감독 로베르 구에디귀앙, 미국 감독 에바 두버네이, 심사위원장 케이트 블란쳇, 브룬디 싱어송라이터 카자 닌, 칸영화제 피에르 레스퀴르 위원장, 미국 배우 크리스틴 스튜어트, 대만 배우 장첸. / 황금종려상의 주인을 결정하는 것은 전적으로 호주 출신 배우 케이트 블란쳇을 중심으로 한 9인의 심사위원단이다. 심사위원장 케이트 블란쳇 외에 미국 배우 크리스틴 스튜어트, 프랑스 배우 레아 세이두, 대만 배우 장첸, 캐나다 드니 빌뇌브 감독, 미국 아바 두버네이 감독, 러시아 안드레이 즈기야긴체프 감독, 프랑스 로베르 구에디귀앙 감독, 브룬디 싱어송라이터 카자 닌이 심사위원단을 구성했다. 9명 중 여성이 5명으로 과반수를 넘고, 직업적으로는 배우가 4명, 감독이 4명, 뮤지션이 1명이다. 이들은 과연 어떤 선택을 할까. 버닝이 한국 최초의 황금종려상 수상작이 될지 주목된다."
                },
                "sub_template_type": "normal1 HERE",
                "start_date": {
                    "millisecond": "",
                    "second": "",
                    "hour": "7",
                    "year": "2018",
                    "format": "",
                    "day": "19",
                    "minute": "00",
                    "month": "05"
                }
            },
            {
                "media": {
                    "url": "https://entertain.naver.com/movie/now/read?oid=112&aid=0003032120",
                    "caption": "",
                    "thumb": "",
                    "credit": ""
                },
                "number_info": "10:54",
                "background_image_url": "background_image_url HERE",
                "text": {
                    "video_url": "",
                    "sub_text3": "지난 16일 칸국제영화제에서 공식 상영회를 통해 전 세계 평단과 언론, 관객들에게 처음으로 선보여진 영화 버닝. 이는 71회 칸국제영화제에서 발표된 22편의 경쟁부문 작품 중 최고점의 평점이었다. ",
                    "sub_text2": "지난 2013년 그렇게 아버지가 된다로 심사위원상을 수상한 고레에다 히로카즈 감독이 칸국제영화제 경쟁부문에 진출한지 총 다섯 번째 만에 황금종려상의 영광을 안을 수 있었다. 비록 수상의 영광을 안지 못했지만 버닝이 제71회 칸국제영화제에서 남긴 족적은 꽤 괄목할 만하다. 지난 2000년 박하사탕이 칸국제영화제 감독 주간에 초청된 것을 시작으로 칸국제영화제와 인연을 맺은 이창동 감독. 이후 이창동 감독은 2007년 밀양, 2010년 시로 경쟁부문에 초청받았다. 그 후 8년이라는 시간이 지나 신작으로 찾아온 이창동 감독에 대한 귀환은 그야말로 이슈를 이끌었다. 지난 16일 칸국제영화제에서 공식 상영회를 통해 전 세계 평단과 언론, 관객들에게 처음으로 선보여진 영화 버닝. 이는 71회 칸국제영화제에서 발표된 22편의 경쟁부문 작품 중 최고점의 평점이었다. 이는 스크린 데일리가 칸국제영화제에서 부여했던 평점 중 최고의 평점이었다. 티에리 프리모 칸 집행위원장은 버닝에 대해 대단하고, 훌륭하며 강한 영화라며 순수한 미장센으로서 영화의 역할을 다하며 관객의 지적 능력을 기대하는 시적이고 미스터리한 영화라는 찬사를 남기기도 했다. 버닝이 가지고 있는 작품성에 대해 평론가들과 언론이 제71회 칸국제영화제의 경쟁부문 22개의 작품들 중 최고라 평가한 것이나 다름없다. ",
                    "sub_title": "[POP이슈]\"칸 최종 수상 불발\"…그럼에도 '버닝'은 뜨거웠다",
                    "image_url": [
                        "https://mimgnews.pstatic.net/image/112/2018/05/20/201805200957254088652_20180520105155_01_20180520105411543.jpg?type=w540",
                        "https://ssl.pstatic.net/mimgnews/image/112/2018/05/20/201805200957254088652_20180520105234_01_20180520105411549.jpg?type=w540"
                    ],
                    "sub_text": "수상은 불발됐지만 영화 버닝이 칸국제영화제에서 남긴 성적은 괄목할 만하다. 19일 오후 7시 15분 현지시각 프랑스 칸 뤼미에르 대극장에서는 제71회 칸국제영화제의 폐막식이 진행됐다. 지난 8일 개막해 총 1906편의 영화가 여러 섹션을 통해 전 세계 영화 관계자 및 관객들에게 소개된 12일 간의 여정. 이날 폐막식에서는 경쟁부문에 진출한 21편의 영화와 단편영화 경쟁부문의 작품들이 총 9명의 심사위원단의 선택을 받아 수상의 영광을 안게 됐다. 고레에다 히로카즈 감독의 만비키 가족에 영예의 황금종려상이 돌아갔고, 스파이크 리 감독의 블랙 클랜슨맨이 심사위원 대상을 수상했다. 만비키 가족은 할머니의 연금과 좀도둑질로 연명하던 한 가족이 어느 추운 겨울, 홀로 추위에 떨고 있는 다섯 살 소녀를 집으로 데려와 가족으로 삼으면서 벌어지는 이야기를 담은 작품. 지난 2013년 그렇게 아버지가 된다로 심사위원상을 수상한 고레에다 히로카즈 감독이 칸국제영화제 경쟁부문에 진출한지 총 다섯 번째 만에 황금종려상의 영광을 안을 수 있었다. 아쉽게도 이창동 감독의 버닝은 수상의 영광을 안지 못했다. 한국영화 중 유일하게 경쟁부문 초청작에 이름을 올렸던 버닝이었기에 아쉬움이 커지고 있다. 비록 수상의 영광을 안지 못했지만 버닝이 제71회 칸국제영화제에서 남긴 족적은 꽤 괄목할 만하다. 지난 2000년 박하사탕이 칸국제영화제 감독 주간에 초청된 것을 시작으로 칸국제영화제와 인연을 맺은 이창동 감독. 이후 이창동 감독은 2007년 밀양, 2010년 시로 경쟁부문에 초청받았다. 특히 밀양은 여주인공 전도연에게 여우주연상을 안겨줬고, 시로는 이창동 감독 본인이 각본상의 영광을 안았었다. 그 후 8년이라는 시간이 지나 신작으로 찾아온 이창동 감독에 대한 귀환은 그야말로 이슈를 이끌었다. 특히나 버닝의 작품성은 해외 평단과 언론을 들썩이게 만들었다. 지난 16일 칸국제영화제에서 공식 상영회를 통해 전 세계 평단과 언론, 관객들에게 처음으로 선보여진 영화 버닝. 이후 평단은 버닝에 주목하기 시작했다. 가장 먼저 평점을 발표했던 미국 영화잡지 아이온시네마는 평점 5점 만점 중 3,8점을 부여했다. 이는 71회 칸국제영화제에서 발표된 22편의 경쟁부문 작품 중 최고점의 평점이었다. 영화제 기간 스크린인터내셔널이 발행하는 공식 데일리지 스크린 데일리 역시 평점 4점 만점 중 3.8점을 버닝에 부여했다. 이는 스크린 데일리가 칸국제영화제에서 부여했던 평점 중 최고의 평점이었다. 티에리 프리모 칸 집행위원장은 버닝에 대해 대단하고, 훌륭하며 강한 영화라며 순수한 미장센으로서 영화의 역할을 다하며 관객의 지적 능력을 기대하는 시적이고 미스터리한 영화라는 찬사를 남기기도 했다. 또한 마이크 굿리지 마카오 국제영화제 집행위원은 칸에서 본 영화 중 최고였다며 최고의 연출력으로 최고의 연기를 끌어냈다고 평을 남겼다. 이외에도 마스터피스, 완벽한 영화라는 찬사들이 줄줄이 이어졌다. 그야말로 칸 현지를 뜨겁게 달궜다. 물론 이러한 평단과 언론의 주목에도 황금종려상 수상을 선뜻 예상할 수 없었다. 칸국제영화제의 경우 9명의 심사위원단의 심사로만 수상 여부가 가려지기 때문이었다. 비록 본상 수상의 영광은 얻지 못했지만 버닝은 폐막식 직전 진행된 프랑스 칸 팔레드페스티벌에서 국제비평가연맹상을 수상했다. 이는 세계 영화 비평가들과 영화기자, 각국 평론가 단체가 가입된 국제비평가연맹이 수여하는 상. 버닝이 가지고 있는 작품성에 대해 평론가들과 언론이 제71회 칸국제영화제의 경쟁부문 22개의 작품들 중 최고라 평가한 것이나 다름없다. 이창동 감독의 8년만의 귀환. 아쉽게도 칸국제영화제 본상 수상의 영광은 안지 못했지만, 버닝은 칸국제영화제에서 작품성의 인정과 전 세계의 주목이라는 그 어느 것보다 값진 상을 안게 됐다. 한편, 버닝은 유통회사 알바생 종수 유아인 분 가 어릴 적 동네 친구 혜미 전종서 분 를 만나고, 그녀에게 정체불명의 남자 벤 스티븐 연 을 소개받으면서 벌어지는 비밀스럽고도 강렬한 이야기를 담은 작품. 초록물고기, 박하사탕, 오아시스, 밀양, 시 등 내놓는 작품마다 높은 작품성으로 국내는 물론 해외 영화팬들을 열광시킨 이창동 감독의 6번째 장편 연출작이다. 지난 17일 개봉했다."
                },
                "sub_template_type": "normal1 HERE",
                "start_date": {
                    "millisecond": "",
                    "second": "",
                    "hour": "10",
                    "year": "2018",
                    "format": "",
                    "day": "20",
                    "minute": "54",
                    "month": "05"
                }
            },
            {
                "media": {
                    "url": "https://entertain.naver.com/movie/now/read?oid=111&aid=0000520833",
                    "caption": "",
                    "thumb": "",
                    "credit": ""
                },
                "number_info": "7:05",
                "background_image_url": "background_image_url HERE",
                "text": {
                    "video_url": "",
                    "sub_text3": "세상을 바라보는 인식이 달라진 상황에서 원작의 이 짧은 미스터리를 확장해 간달까? 혹은 다른 여러 미스터리를 통해 간달까? 그 다음에, 그걸 넘어서 삶의 방식에 대한 이야기를 해보고 싶었다. 이런 시대니까 이런 영화를 만들어야겠다라기 보다는 내 나름대로 영화라는 것에 대해 자꾸 생각하다보니 이런 식의 영화 방식을 해보고 싶었다고 할까? 조금 더 구체적으로 보면 전에는 영화 모든 요소를 내가 통제하고 있던 것 같다. ",
                    "sub_text2": "서로 다른 예술 방식을 가지고 있는 셈이에요.\" 감독은 버닝을 통해 궁극적으로 영화의 속성에 대해 한 번 더 생각할 계기를 마련하고 싶었다고 말한다. 표면의 미스터리만 따라가면서 텐션을 느끼기만 해도 되죠.\" 이창동 감독은 버닝으로 다섯 번째 칸에 초청됐다. 한국 영화인의 벌칸상 수상은 지난 2016년 칸 초청작 아가씨의 류성희 미술감독 이후 두 번째다. 그것을 아직 붙들고 있는 사람들이 있지만 보편적으로 이것이 문제다라고 생각할만한 대상이 없어진 것 같다. 세상을 바라보는 인식이 달라진 상황에서 원작의 이 짧은 미스터리를 확장해 간달까? 혹은 다른 여러 미스터리를 통해 간달까? 그 다음에, 그걸 넘어서 삶의 방식에 대한 이야기를 해보고 싶었다. 이런 시대니까 이런 영화를 만들어야겠다라기 보다는 내 나름대로 영화라는 것에 대해 자꾸 생각하다보니 이런 식의 영화 방식을 해보고 싶었다고 할까? 조금 더 구체적으로 보면 전에는 영화 모든 요소를 내가 통제하고 있던 것 같다. 사실 영화라는 게 모든 것을 정해놓고 통제해서 만들어내는 세계라고는 생각하기 쉽지 않다. 어찌됐든 내가 조금 덜 통제하고 비켜 서 있는 것이 영화라는 매체에 더 맞는다고 생각하게 됐다. 영화의 종수가 소설을 쓰는 장면이나, 사건 후 종수가 꿈에서 깨어나는듯한 장면들은 영화의 해석을 더욱 풍성하게 만드는데, 이 역시 의도한 것인가? \"그렇다. 종수는 작가도 아니고 작가 지망생이다. ",
                    "sub_title": "'버닝' 이창동, 영화라는 헛간을 채우다(일문일답)",
                    "image_url": [
                        "https://mimgnews.pstatic.net/image/111/2018/05/20/0000520833_001_20180520151405509.jpg?type=w540",
                        "https://ssl.pstatic.net/mimgnews/image/111/2018/05/20/0000520833_002_20180520151405537.jpg?type=w540",
                        "https://mimgnews.pstatic.net/image/111/2018/05/20/0000520833_003_20180520151405569.jpg?type=w540",
                        "https://ssl.pstatic.net/mimgnews/image/111/2018/05/20/0000520833_004_20180520151405591.jpg?type=w540",
                        "https://mimgnews.pstatic.net/image/111/2018/05/20/0000520833_005_20180520151405621.jpg?type=w540",
                        "https://ssl.pstatic.net/mimgnews/image/111/2018/05/20/0000520833_006_20180520151405647.jpg?type=w540",
                        "https://mimgnews.pstatic.net/image/111/2018/05/20/0000520833_007_20180520151405668.jpg?type=w540"
                    ],
                    "sub_text": "영화 버닝으로 칸국제영화제에 초청된 이창동 감독이 영화를 통해 말하고 싶었던 이야기를 알렸다. 무수한 은유로 점철된 이 영화의 의미를 재구성해나가는 것은 결국 관객의 몫임을 알리면서도, 이 시대 청년들의 말해지지 않는 분노에 대한 관심이 영화의 출발이었다고 설명했다. 한국 뿐 아니라 세계 영화계가 주목해 온 거장 이창동의 귀환은 지금 이 시대, 오늘의 세계와 조응하기 위한 부지런한 노력 끝에 이뤄졌다. 그리고 그의 작업기는 결국 헛간처럼 비어있는 영화의 바탕을 자신의 세계로 채워나간 과정이기도 했다. 18일 이하 현지시각 제71회 칸국제영화제가 열리고 있는 프랑스 칸의 해변 모처에서 경쟁부문 초청작 버닝 감독 이창동, 제작 파인하우스필름, 나우필름 의 이창동 감독과 배우 유아인, 스티븐연, 전종서가 참석한 가운데 라운드 인터뷰가 진행됐다. 버닝은 유통회사 알바생 종수 유아인 분 가 어릴 적 동네 친구 해미 전종서 분 를 만나고, 그녀에게 정체불명의 남자 벤 스티븐 연 분 을 소개 받으면서 벌어지는 비밀스럽고도 강렬한 이야기. 일본의 유명 작가 무라카미 하루키의 단편 소설 헛간을 태우다에서 모티프를 얻은 작품이다. 세계 영화계가 주목해 온 작가주의 감독인 그는 신작을 통해 뚜렷한 대상이나 이유를 찾을 수 없는 이 시대 청년들의 분노에 주목했다. 국가와 사회, 종교나 신념 등을 초월해 동세대들로부터 관찰되는 이 분노의 정서가 버닝 속 인물들에 반영됐다. 영화가 나열하는 무수한 은유의 원관념은 감독이나 배우의 입을 통해 온전히 설명되지 않는다. 대사나 공간을 통해 툭툭 던져지는 메타포는 사건 전후 인물의 행동이나 장면의 배열을 어떻게 수용하는지에 따라 다른 이야기를 내뱉는다. 이창동 감독은 영화 속 모호한 지점들에 대해 \"분명한 것이 없다. 그런 의심들을 통해 관객이 다른 질문에 연결되길 바랐다\"고 알렸다. 극 중 주요 소재로 등장하는 비닐하우스를 영화라는 매체 자체에 비유하며, 비어있는 어떤 공간이 의미를 얻게 되는 상호작용의 과정에 대해서도 설명했다. \"우리가 영화를 보거나 소설을 읽으며 세상을 이야기로 이해하기도 하고, 신문으로는 더 직접적인 논리로도 이해하게 되겠지만, 예술이라는 건 일종의 메타포를 통해 세상과 삶을 이해하고자 하는 도구예요. 우리가 받아들이는 인식에 서로 다른 것들이 있을 수 있는 것 같아요. 이를테면 영화에도 등장하는 윌리엄 포크너와 같은 문학을 하는 것이 문학의 궁극적 자세라 생각할 때도 있었어요. 포크너는 그 나름의 진지함으로, 원작의 하루키는 다른 방식으로 삶에 대해 이야기하죠. 서로 다른 예술 방식을 가지고 있는 셈이에요.\" 감독은 버닝을 통해 궁극적으로 영화의 속성에 대해 한 번 더 생각할 계기를 마련하고 싶었다고 말한다. 그는 \"사람들은 영화를 보며 많은 것을 느끼기도, 현실에서 이탈하기도, 그 영화에 대한 태도로 서로 싸우기도 하지만 사실 영화라는 매체는 비어 있는 것\"이라고 설명했다. 원작 단편에선 헛간으로, 영화에선 비닐하우스로 비유했을만한 그 비어있음이 영화의 바탕이라고 말했다. \"마치 비닐하우스처럼, 뭔가 형상이 있는 것 같긴 하지만 투명할 뿐 아무것도 없는 거예요. 농사를 지으면 그 안에 내용물이 담기겠지만, 비어버리면 그야말로 아무것도 아니죠. 영화 매체도 그런 것이 아닌가 싶어요. 버닝을 통해 나름의 미스터리 이야기를 어떤 메시지로 전달하기보다는 보여주고 싶었어요. 관객은 그것을 몰라도 상관 없어요. 표면의 미스터리만 따라가면서 텐션을 느끼기만 해도 되죠.\" 이창동 감독은 버닝으로 다섯 번째 칸에 초청됐다. 박하사탕이 제53회 영화제의 감독주간에 초청됐고 초록물고기는 비평가주간의 러브콜을 받았다. 지난 2007년 경쟁부문 초청작 밀양으로는 전도연에게 여우주연상을 안겼다. 2010년에는 시로 각본상을 수상했으며 2011년에는 비평가주간 심사위원장으로 영화제를 누비기도 했다. 올해 시상식에선 본상 수상에는 고배를 마셨지만 국제영화비평가협회상을 수상하며 작품성을 입증했다. 버닝의 신점희 미술감독은 칸국제영화제 공식초청작 중 미술, 음향, 촬영 등 부문에서 가장 뛰어난 기술적인 성취를 보여준 작품의 아티스트를 선정해서 수여하는 벌칸상 The Vulcan Award of the Technical Artist 수상자로 선정되기도 했다. 한국 영화인의 벌칸상 수상은 지난 2016년 칸 초청작 아가씨의 류성희 미술감독 이후 두 번째다. 한편 버닝은 지난 17일 개봉해 국내 관객을 만나고 있다. 이하 이창동 감독과 일문일답 감독이 중심으로 삼는 것이 개인인지 혹은 사회 속의 개인인지를 생각할 때 버닝은 밀양이나 오아시스 시 보다는 박하사탕과 그 결을 같이 하는 것 같다. 박하사탕은 비교적 초기작에 속하는데, 다시 초기의 시선으로 돌아간 이유가 궁금하다. \"이야기하는 법, 내가 세상이나 삶에 대해 가지고 있는 생각은 크게 다르지 않다. 10년, 20년이 지난다 해도 그럴 것이다. 그런데 다른 방식으로 이야기해보고 싶었다. 그러니까 영화를 단순한 감각으로 받아들이기 바랐다. 그래서 영화가 미스터리, 혹은 스릴러의 형태를 띤 것 같기도 하다. 그냥 영화를 느끼기만 했으면 좋겠다. 사실은 그만큼 달라졌다. 과거에도 나는 메시지를 던지기 위해 영화를 만들진 않았다. 한 번도 그런 적이 없었다. 그냥 질문을 했다. 그런데 지금은 질문하는 방식이 달라졌다고 할까.\" 무라카미 하루키의 원작 헛간을 태우다는 영화보다도 훨씬 더 모호한데, 이 원작에 매료된 이유가 궁금하다. \"원작 플롯은 밑도 끝도 없는, 그러나 약간 미스터리한 짧은 이야기다. 그것을 내가 이전에 생각했던, 다음 영화를 준비하며 생각한 것과 연결시킬 수 있겠다고 생각했다. 설명하기는 싫지만 기본적으로 단순한 것만 이야기하자면, 요즘 세상의 모습이 많이 달라졌다고 생각한다. 세상은 그대로 있지만 세상을 바라보는 인식이랄까? 몇십년 전만 해도 세상을 이해하는 방식이나 세상이 나아갈 방향에 대한 태도가 분명했다. 뭔가 잘못돼서, 그것만 어떻게 하면 세상이 좋아질 것이라는 믿음이 있었다. 지금은 그게 없어진 것 같다. 그것을 아직 붙들고 있는 사람들이 있지만 보편적으로 이것이 문제다라고 생각할만한 대상이 없어진 것 같다. 그러면서 사람들이 각각 문제를 안고 있다. 세상을 바라보는 인식이 달라진 상황에서 원작의 이 짧은 미스터리를 확장해 간달까? 혹은 다른 여러 미스터리를 통해 간달까? 그 다음에, 그걸 넘어서 삶의 방식에 대한 이야기를 해보고 싶었다. 영화에는 벤과 종수가 나오지만 두 인물이 각각 다른 삶의 방식으로 살고 있다. 벤은 무엇 때문인지 몰라도 윤택하게 좋은 것을 누리며 살고 있다. 그러면서도 겉으로는 관용적이고 남들을 배려하는 것 같다. 별 문제가 없어보인다. 대개 종수같은 친구가 선망할 수 있는 삶의 방식이다. 우리 모두 그런 삶을 꿈꾸는지도 모른다. 삶의 방식 자체가 그쪽으로 가고 있기도 하다. 종수는 아직도 현실의 조건에서 못 빠져 나오고 있다. 여전히 그런 젊은 친구들이 많다. 설사 부모가 조금 여유있는 부모라 해도 자식은 종수같은 삶을 사는 집도 많더라. 그런 둘의 삶의 방식의 태도에 대해 질문을 던지고 싶었다. 그 관계 또한 미스터리한 코드로 이야기해보고 싶었다.\" 영화는 모호한 관계와 흐름을 이어가지만 관객으로서는 영화가 쌓아가는 단서들을 학습하며 극에 끌려가게 되는 것 같다. 치밀하게 계획한 결과인지 궁금하다. \"시나리오 단계에서도 그렇게 조율이 돼 있었다. 그런데 그건 시나리오 단계에서 머릿속에서 상상하는 것이고, 직접적으로 그걸 얼만큼 체화해 보여줘야 하는지 촬영 중에도 조절해야 했다. 벤이라는 인물 자체는 미스터리 그 자체다. 벤은 어찌보면 착하고 선의 가득한 인물로 보이기도 하고 어찌보면 의심스러우면서 뭔가 가지고 있는듯 보이기도 한다. 어느 쪽이든 분명해지면 안되니까 적절히 조절해야 했다. 이를테면 표정이든 말하는 목소리 톤이든 그것을 조절해나가는게 중요했다. 학습은 다른 말로는 정보를 주는 것인데, 정확한 정보를 주지 않으니 제대로 된 학습이라고는 볼 수 없다. 학생을 가르치듯 하는 것은 아니다. 정보를 적절히는 주는데, 정보의 양에 따라, 그걸 받아들이는 이들에 따라 다르겠지만 미묘한 조절이 필요했다.\" 버닝은 그간 감독이 선보였던 영화들과 비교해 가장 감각적인 영화다. 이런 변화가 일어난 배경이 궁금하다. \"어떤 외적 과정을 거쳐 여기까지 오게 됐는지는 설명하기 힘들다. 지금은 어쨌든 감각이나 정서로 소통하는 시대인 것 같다. 그렇게밖에 말할 수가 없다. 이런 시대니까 이런 영화를 만들어야겠다라기 보다는 내 나름대로 영화라는 것에 대해 자꾸 생각하다보니 이런 식의 영화 방식을 해보고 싶었다고 할까? 조금 더 구체적으로 보면 전에는 영화 모든 요소를 내가 통제하고 있던 것 같다. 그런데 지금은 그렇게 하지 말아야겠다는 생각이 든다. 그냥 각각 독립적으로 존재하게 하고 싶었다. 영화 속 모든 요소들, 인물이든 소리든 영상이든 음악이든 각각 각자 알아서 존재하는데 자유롭게 그것들이 어떤 나름의 통제되지 않는 우연한 질서처럼 있는 그런 것을 꿈꿨다. 실제로 그렇게 되기는 거의 불가능하겠지만 어쨌든 최대한 그렇게 해보자는 자세로 영화를 만들었다.\" 통제하지 않아야겠다고 생각하게 된 이유가 궁금하다. \"영화를 하는 사람으로서 근원적 질문이다. 사실 영화라는 게 모든 것을 정해놓고 통제해서 만들어내는 세계라고는 생각하기 쉽지 않다. 마치 감독이 신의 흉내를 낸다고 해야 할까? 하지만 그 곳이 파주든 어디든 삶의 모습을 우연히 포착해 낼 수 있는 것과 만들어 보여지는 것은 많이 다르지 않나. 내가 창조하지 않고 잡아만 내겠다고 생각하는 것과 일일이 통제하는 건 다르다. 사실 이게 굉장히 모순적인 이야기인데, 그 둘은 항상 같이 있는 것이다. 영화를 만드는 방식에 있어서는 그렇다. 어찌됐든 내가 조금 덜 통제하고 비켜 서 있는 것이 영화라는 매체에 더 맞는다고 생각하게 됐다. 사실 이런 것까지 관객에게 알리거나 이게 더 가치있다고 주장할 생각은 없다. 그저 내 자신이 그렇게 됐다.\" 연기 연출 방식 역시 달라졌나? \"배우에게 이렇게 저렇게 하라고, 내가 원하는 대로 끌고 오진 않는다. 이번엔 특히 배우의 자발성을 최대한 끌어내려 했다. 스태프들과의 작업도 비슷하데, 점점 나이가 들면 내가 노력하지 않으면 자유로움을 추구하기 어려워진다. 크게 달라졌다기보다 더 노력하게 된 것 같다. 예를 들면 전에는 영화에서 음악을 많이 절제하는 편이었다. 음악은 영화 속 세계에 인위적으로 들어가는 것이라 생각했다. 그런데 지금은 굳이 그것까지 고집할 것 있나 생각한다.\" 한국에서도 버닝 속 이야기를 둘러싼 다양한 해석들이 나오고 있다. 영화의 종수가 소설을 쓰는 장면이나, 사건 후 종수가 꿈에서 깨어나는듯한 장면들은 영화의 해석을 더욱 풍성하게 만드는데, 이 역시 의도한 것인가? \"그렇다. 다양한 해석이 나오는 것을 굳이 의도했는지는 모르지만 이런 방식으로 영화를 찍으면 그렇게 되는 건 자연스러운 것 같다. 종수는 작가도 아니고 작가 지망생이다. 그것이 종수가 세상을 바라보는 시선이나 태도에 조금 근원적인 뭔가를 제공한다고 생각한다. 작가가 아무 생각없이 세상을 바라볼 수는 없으니까. 내가 무슨 이야기를 해야 하지? 내 눈앞의 세계, 현실은 뭐지?라고 질문하게 된다. 관객이 종수의 감정에 기댄다면 조금 다른 것을 볼 수 있다. 그 점은 분명히 의도했다. 그러면 자연스럽게 종수는 대체 무슨 글을 쓸까? 생각하게 된다. 극에도 그런 대사가 나오지 않나. 그게 모든 지망생이 하는 질문이다. 나도 했고, 지금도 한다. 어쩌면 감독으로서 나의 한계 혹은 비극인지도 모르겠다. 그냥 재밌는 영화 만들면 되지 뭘 질문을 하고 있냐고 생각할 수도 있는데 말이다. 그러다보니 8년의 시간이 갔다. 그런데 적어도 작가라면, 그 질문을 버리는 순간, 혹은 하지 않는 순간 작가가 아니게 된다. 그래서 종수에겐 무슨 글을 쓸 것인지에 대한 고민이 있다. 모호한 장면과 연결들에 대해선 배우들 역시 모호하게만 아는 채로 연기를 했나? \"그건 아니다. 사실 사람은 잘 모를 수 있다. 연쇄살인범이라 해도 직접 사람을 죽여야만 살인범인 것이 아니다. 손에 피를 묻히지 않아도 수많은 사람을 죽일 수 있다. 멀리 있는 사람을 죽이는 데는 죄의식이 없다. 멀리 형상으로 보이는 것이 아닌, 숫자로 돼 있다면 아무 죄의식이 없다. 그렇게 치면 거기서 자유롭게 비켜나 있을 사람이 별로 없다. 우리 삶 방식 자체도 그렇다. 종수가 작가로서 그의 삶이나 해미의 삶에 대해, 그 구원에 대해 얼만큼 쓸 수 있을지는 모르겠다\" 버닝의 어떤 한 장면을 위해 이 영화를 만들었다면, 그건 무슨 장면일까? \"몇몇 장면은 이걸 영화로 만들어 볼 수 있겠다는 동기가 되기는 했다. 그 중 하나는 해미가 춤추는 장면이었다. 그것에 영화 속 모든 것이 어느 정도 집약돼 있다고 생각한다. 이미지로든, 무엇으로든 그렇다고 생각한다.\" /칸 프랑스 권혜림기자 채널에서 를 구독해주세요. 아이뉴스TV에서 부동산 고수를 만나보세요."
                },
                "sub_template_type": "normal1 HERE",
                "start_date": {
                    "millisecond": "",
                    "second": "",
                    "hour": "7",
                    "year": "2018",
                    "format": "",
                    "day": "20",
                    "minute": "05",
                    "month": "05"
                }
            },
            {
                "media": {
                    "url": "https://entertain.naver.com/movie/now/read?oid=421&aid=0003380801",
                    "caption": "",
                    "thumb": "",
                    "credit": ""
                },
                "number_info": "3:39",
                "background_image_url": "background_image_url HERE",
                "text": {
                    "video_url": "",
                    "sub_text3": "버닝은 이창동 감독 19일 오후 7시 15분 현지시각 프랑스 칸 뤼미에르 대극장에서 진행한 제71회 칸국제영화제 이하 칸영화제 의 폐막식에서 수상에 실패했다. 이 영화는 지난 16일 현지시간 칸영화제 공식 상영회를 통해 공개된 후 평론가들의 극찬을 받아왔다. ",
                    "sub_text2": "영화 버닝의 이창동 감독이 17일 현지시간 제71회 칸국제영화제 공식 포토콜에서 포즈를 취했다. 버닝은 이창동 감독 19일 오후 7시 15분 현지시각 프랑스 칸 뤼미에르 대극장에서 진행한 제71회 칸국제영화제 이하 칸영화제 의 폐막식에서 수상에 실패했다. 칸영화제 내내 이창동 감독의 버닝과 함께 호평을 받았던 수작이다. 고레에다 히로카즈 감독은 제66회 칸영화제에서 그렇게 아버지가 된다로 심사위원상을 받은 바 있다. 이 영화는 지난 16일 현지시간 칸영화제 공식 상영회를 통해 공개된 후 평론가들의 극찬을 받아왔다. ",
                    "sub_title": "[N칸현장] 이창동 '버닝' 수상 불발…日 고레에다 히로카즈 황금종려상 (종합)",
                    "image_url": [
                        "https://mimgnews.pstatic.net/image/421/2018/05/20/0003380801_001_20180520074321715.jpg?type=w540",
                        "https://ssl.pstatic.net/mimgnews/image/421/2018/05/20/0003380801_002_20180520074321735.jpg?type=w540"
                    ],
                    "sub_text": "영화 버닝의 이창동 감독이 17일 현지시간 제71회 칸국제영화제 공식 포토콜에서 포즈를 취했다. AFP 정유진 기자 칸 정유진 기자 기대를 모았던 영화 버닝의 칸영화제 수상이 불발로 돌아갔다. 버닝은 이창동 감독 19일 오후 7시 15분 현지시각 프랑스 칸 뤼미에르 대극장에서 진행한 제71회 칸국제영화제 이하 칸영화제 의 폐막식에서 수상에 실패했다. 이날 칸영화제 황금종려상은 고레에다 히로카즈 감독의 만비키 가족에 돌아갔다. 만비키 가족은 도둑질로 연명하며 살던 아버지와 아들이 어느 추운 겨울, 홀로 버려진 소녀를 집으로 데려오면서 벌어지는 이야기를 그렸다. 칸영화제 내내 이창동 감독의 버닝과 함께 호평을 받았던 수작이다. 고레에다 히로카즈 감독은 제66회 칸영화제에서 그렇게 아버지가 된다로 심사위원상을 받은 바 있다. 버닝의 수상 불발은 여러모로 아쉬움을 준다. 이 영화는 지난 16일 현지시간 칸영화제 공식 상영회를 통해 공개된 후 평론가들의 극찬을 받아왔다. 특히 영화제 기간 매일 발행되는 공식 데일리지 스크린 데일리에서 평점 4점 만점에 3.8점을 받아 역대 최고 평점을 경신하기도 했다.Japanese director Hirokazu Kore Edawaves as he arrives on May 19, 2018 for the closing ceremony and the screening of the film \"The Man Who Killed Don Quixote＂ at the 71st edition of the Cannes Film Festival in Cannes, southern France. / AFP PHOTO / Loic VENANCE 그 뿐 아니라 이날 버닝은 폐막식 직전 열린 국제영화비평가연맹 시상식에서 경쟁 부문 수상작으로 상을 받기도 했다. 작품성을 인정받음 셈. 이창동 감독은 이 자리에서 \"여기는 레드카펫도 화려한 플래시도 없지만, 레드카펫은 비현실적으로 느껴졌는데 여긴 나에게 더 현실적으로 느껴진다\"고 소감을 밝힌 바 있다. 이창동 감독은 그간 칸영화제와 각별한 관계를 맺어왔다. 2000년 박하사탕이 감독주간에 초청된 후 2007년 밀양, 2010년 시로 연이어 경쟁 부문에 진출해 각각 여우주연상 전도연 과 각본상을 수상했다. 하지만 올해는 수상의 영예를 얻지는 못했다. 한편 제71회 칸영화제는 지난 8일 개막해 이날 폐막한다. 총 1906편의 영화가 여러 섹션을 통해 전세계 영화 관계자 및 관객들에게 첫 선을 보였다. 폐막작은 돈키호테를 죽인 사나이 테리 길리엄 감독 이다."
                },
                "sub_template_type": "normal1 HERE",
                "start_date": {
                    "millisecond": "",
                    "second": "",
                    "hour": "3",
                    "year": "2018",
                    "format": "",
                    "day": "20",
                    "minute": "39",
                    "month": "05"
                }
            },
            {
                "media": {
                    "url": "https://entertain.naver.com/movie/now/read?oid=241&aid=0002788780",
                    "caption": "",
                    "thumb": "",
                    "credit": ""
                },
                "number_info": "3:35",
                "background_image_url": "background_image_url HERE",
                "text": {
                    "video_url": "",
                    "sub_text3": "이로써 한국 영화는 69회 아가씨 박찬욱 감독 , 71회 옥자 봉준호 감독 , 그 후 홍상수 감독 에 이어 버닝까지 3년 연속 경쟁부문 진출에는 성공했지만 수상은 불발됐다. 71회 칸 영화제 심사위원대상 ,블랙클랜스맨, 스파이크 리 감독 미국 / 심사위원상 ,가버나움, 나딘 라바키 감독 레바논 71회 칸 영화제 남우주연상 ,도그맨, 마르첼로 폰테 이탈리아 / 여우주연상 ,아이카, 사말 예슬야모바 카자흐스탄 한편 만비키 가족 황금종려상을 비롯해 심사위원대상은 블랙클랜스맨 스파이크 리 감독 미국 이 받았고, 감독상은 폴란드 영화 콜드 워의 파벨 파블리코브스키 감독이 트로피를 거머쥐었다. ",
                    "sub_text2": "19일 현지시간 진행된 제71회 칸 국제영화제 폐막식 시상식에서 최고의 영화에게 수여하는 황금종려상은 일본 영화 만비키 가족이 차지했다. 국제비평가연맹상은 매년 유력 영화제에서 경쟁 부문 1편, 감독 주간 1편, 비평가 주간 1편을 선정해 상을 수여한다. 이로써 한국 영화는 69회 아가씨 박찬욱 감독 , 71회 옥자 봉준호 감독 , 그 후 홍상수 감독 에 이어 버닝까지 3년 연속 경쟁부문 진출에는 성공했지만 수상은 불발됐다. 칸 영화제 수상은 63회 때 이창동 감독이 시로 각본상을 수상한 것이 끝이다. 71회 칸 영화제 심사위원대상 ,블랙클랜스맨, 스파이크 리 감독 미국 / 심사위원상 ,가버나움, 나딘 라바키 감독 레바논 71회 칸 영화제 남우주연상 ,도그맨, 마르첼로 폰테 이탈리아 / 여우주연상 ,아이카, 사말 예슬야모바 카자흐스탄 한편 만비키 가족 황금종려상을 비롯해 심사위원대상은 블랙클랜스맨 스파이크 리 감독 미국 이 받았고, 감독상은 폴란드 영화 콜드 워의 파벨 파블리코브스키 감독이 트로피를 거머쥐었다. ",
                    "sub_title": "[71회 칸] 日 '만비키가족' 황금종려상…'버닝' 수상실패(종합)",
                    "image_url": [
                        "https://ssl.pstatic.net/mimgnews/image/241/2018/05/20/0002788780_001_20180520040518867.jpg?type=w540",
                        "https://mimgnews.pstatic.net/image/241/2018/05/20/0002788780_002_20180520040518876.jpg?type=w540",
                        "https://ssl.pstatic.net/mimgnews/image/241/2018/05/20/0002788780_003_20180520040518882.jpg?type=w540",
                        "https://mimgnews.pstatic.net/image/241/2018/05/20/0002788780_004_20180520040518891.jpg?type=w540"
                    ],
                    "sub_text": "[ 조연경] 71회 칸 영화제 황금종려상 ,만비키 가족, 고레에다 히로카즈 감독 일본 71회 칸 영화제 황금종려상은 일본 거장 고레에다 히로카즈 감독의 만비키 가족에게 돌아갔다. 이창동 감독의 버닝은 3연속 수상에 실패했다. 19일 현지시간 진행된 제71회 칸 국제영화제 폐막식 시상식에서 최고의 영화에게 수여하는 황금종려상은 일본 영화 만비키 가족이 차지했다. 올해 유일한 경쟁부문 진출작으로 본상 수상 가능성이 높았던 버닝은 작품과 감독은 물론 배우들도 트로피를 거머쥐지 못한 채 빈 손으로 돌아오게 됐다. 칸 영화제 기간 내 외신과 평단이 수여하는 역대 최고 평점을 받으면서 수상에 대한 기대감이 상당했지만 심사위원들의 선택을 받지는 못했다. 폐막식 시상식에 앞서 1930년 전세계 영화평론가와 영화전문기자들이 모여 만든 단체 국제비평가연맹이 수여하는 국제비평가연맹상을 수상하는 국제비평가연맹상을 받은 것으로 아쉬움을 달래게 됐다. 국제비평가연맹상은 매년 유력 영화제에서 경쟁 부문 1편, 감독 주간 1편, 비평가 주간 1편을 선정해 상을 수여한다. 이창동 감독은 경쟁 부문에서 상을 받았다. 이로써 한국 영화는 69회 아가씨 박찬욱 감독 , 71회 옥자 봉준호 감독 , 그 후 홍상수 감독 에 이어 버닝까지 3년 연속 경쟁부문 진출에는 성공했지만 수상은 불발됐다. 칸 영화제 수상은 63회 때 이창동 감독이 시로 각본상을 수상한 것이 끝이다. 칸이 애정하고 사랑하는 감독이기에 올해도 수상을 노렸지만 한국 최초 황금종려상, 제2의 전도연 꿈 역시 아쉽게 물건너 갔다. 71회 칸 영화제 심사위원대상 ,블랙클랜스맨, 스파이크 리 감독 미국 / 심사위원상 ,가버나움, 나딘 라바키 감독 레바논 71회 칸 영화제 남우주연상 ,도그맨, 마르첼로 폰테 이탈리아 / 여우주연상 ,아이카, 사말 예슬야모바 카자흐스탄 한편 만비키 가족 황금종려상을 비롯해 심사위원대상은 블랙클랜스맨 스파이크 리 감독 미국 이 받았고, 감독상은 폴란드 영화 콜드 워의 파벨 파블리코브스키 감독이 트로피를 거머쥐었다. 또 각본상은 라자로 펠리체 알리체 로르바케르 감독 이탈리아 와 쓰리페이스 NADER SAEIVAR 이란 가 공동수상, 남녀주연상은 각각 이탈리아 영화 도그맨의 마르첼로 폰테, 카자흐스탄 영화 아이카의 사말 예슬야모바가 영광의 주인공이 됐다. 15분 기립박수와 함께 심사위원들을 울린 나딘 라바키 감독의 레바논 영화 가버나움은 심사위원상을 수상했다. 올해 칸 영화제 심사위원장은 배우 케이트 블란쳇이 맡아 진행했다."
                },
                "sub_template_type": "normal1 HERE",
                "start_date": {
                    "millisecond": "",
                    "second": "",
                    "hour": "3",
                    "year": "2018",
                    "format": "",
                    "day": "20",
                    "minute": "35",
                    "month": "05"
                }
            },
            {
                "media": {
                    "url": "https://entertain.naver.com/movie/now/read?oid=421&aid=0003380800",
                    "caption": "",
                    "thumb": "",
                    "credit": ""
                },
                "number_info": "3:28",
                "background_image_url": "background_image_url HERE",
                "text": {
                    "video_url": "",
                    "sub_text3": "만비키 가족 고레에다 히로카즈 감독 은 20일 오후 7시 15분 현지시각 프랑스 칸 뤼미에르 대극장에서 진행한 제71회 칸국제영화제 이하 칸영화제 의 폐막식에서 황금종려상을 받았다. 이번 칸영화제 경쟁 부문 심사위원은 총 9명이다. ",
                    "sub_text2": "이창동 감독의 수상은 불발됐다. 만비키 가족 고레에다 히로카즈 감독 은 20일 오후 7시 15분 현지시각 프랑스 칸 뤼미에르 대극장에서 진행한 제71회 칸국제영화제 이하 칸영화제 의 폐막식에서 황금종려상을 받았다. 고레에다 히로카즈 감독은 제66회 칸영화제에서 그렇게 아버지가 된다로 심사위원상을 받은 바 있다. 이번 칸영화제 경쟁 부문 심사위원은 총 9명이다. 한편 제71회 칸영화제는 지난 8일 개막해 이날 폐막한다. ",
                    "sub_title": "[N칸현장] 고레에다 히로카즈 '만비키 가족', 황금종려상",
                    "image_url": [
                        "https://ssl.pstatic.net/mimgnews/image/421/2018/05/20/0003380800_001_20180520032920077.jpg?type=w540"
                    ],
                    "sub_text": "Japanese director Hirokazu Kore Edawaves as he arrives on May 19, 2018 for the closing ceremony and the screening of the film \"The Man Who Killed Don Quixote\" at the 71st edition of the Cannes Film Festival in Cannes, southern France. / AFP PHOTO / Loic VENANCE AFP 칸 정유진 기자 칸영화제 황금종려상은 고레에다 히로카즈의 만비키 가족에 돌아갔다. 이창동 감독의 수상은 불발됐다. 만비키 가족 고레에다 히로카즈 감독 은 20일 오후 7시 15분 현지시각 프랑스 칸 뤼미에르 대극장에서 진행한 제71회 칸국제영화제 이하 칸영화제 의 폐막식에서 황금종려상을 받았다. 만비키 가족은 도둑질로 연명하며 살던 아버지와 아들이 어느 추운 겨울, 홀로 버려진 소녀를 집으로 데려오면서 벌어지는 이야기를 그렸다. 고레에다 히로카즈 감독은 제66회 칸영화제에서 그렇게 아버지가 된다로 심사위원상을 받은 바 있다. 이창동 감독은 그간 칸영화제와 각별한 관계를 맺어왔다. 2000년 박하사탕이 감독주간에 초청된 후 2007년 밀양, 2010년 시로 연이어 경쟁 부문에 진출해 각각 여우주연상 전도연 과 각본상을 수상했다. 하지만 올해는 수상의 영예를 얻지는 못했다. 이번 칸영화제 경쟁 부문 심사위원은 총 9명이다. 호주 출신 배우이자 이번 영화제 심사위원장인 케이트 블란쳇을 선두로 중국 배우 장첸, 미국 감독 에바 두버네이, 프랑스 감독 로버트 구에디귀앙, 브룬디 싱어송라이터 카자 닌, 프랑스 배우 레아 세이두, 미국 배우 크리스틴 스튜어트, 캐나다 감독 드니 발뇌브, 러시아 감독 안드레이 즈비아긴체프 등이다. 한편 제71회 칸영화제는 지난 8일 개막해 이날 폐막한다. 총 1906편의 영화가 여러 섹션을 통해 전세계 영화 관계자 및 관객들에게 첫 선을 보였다. 폐막작은 돈키호테를 죽인 사나이 테리 길리엄 감독 이다."
                },
                "sub_template_type": "normal1 HERE",
                "start_date": {
                    "millisecond": "",
                    "second": "",
                    "hour": "3",
                    "year": "2018",
                    "format": "",
                    "day": "20",
                    "minute": "28",
                    "month": "05"
                }
            }
        ]
    ]
}
